-- Merging decision tree log ---
manifest
ADDED from C:\vinitha\Akira\sp\super-plan\superPlan\src\main\AndroidManifest.xml:2:1-137:12
	xmlns:tools
		ADDED from C:\vinitha\Akira\sp\super-plan\superPlan\src\main\AndroidManifest.xml:3:5-51
	xmlns:android
		ADDED from C:\vinitha\Akira\sp\super-plan\superPlan\src\main\AndroidManifest.xml:2:11-69
	package
		ADDED from C:\vinitha\Akira\sp\super-plan\superPlan\src\main\AndroidManifest.xml:4:5-34
		INJECTED from C:\vinitha\Akira\sp\super-plan\superPlan\src\main\AndroidManifest.xml
		INJECTED from C:\vinitha\Akira\sp\super-plan\superPlan\src\main\AndroidManifest.xml
	android:versionName
		ADDED from C:\vinitha\Akira\sp\super-plan\superPlan\src\main\AndroidManifest.xml:6:5-30
		INJECTED from C:\vinitha\Akira\sp\super-plan\superPlan\src\main\AndroidManifest.xml
		INJECTED from C:\vinitha\Akira\sp\super-plan\superPlan\src\main\AndroidManifest.xml
	android:versionCode
		ADDED from C:\vinitha\Akira\sp\super-plan\superPlan\src\main\AndroidManifest.xml:5:5-28
		INJECTED from C:\vinitha\Akira\sp\super-plan\superPlan\src\main\AndroidManifest.xml
		INJECTED from C:\vinitha\Akira\sp\super-plan\superPlan\src\main\AndroidManifest.xml
uses-sdk
ADDED from C:\vinitha\Akira\sp\super-plan\superPlan\src\main\AndroidManifest.xml:8:2-10:35
MERGED from [com.android.support:multidex:1.0.1] C:\vinitha\Akira\sp\super-plan\superPlan\build\intermediates\exploded-aar\com.android.support\multidex\1.0.1\AndroidManifest.xml:18:5-42
MERGED from [com.google.android.gms:play-services-measurement:8.3.0] C:\vinitha\Akira\sp\super-plan\superPlan\build\intermediates\exploded-aar\com.google.android.gms\play-services-measurement\8.3.0\AndroidManifest.xml:18:5-42
MERGED from [com.google.android.gms:play-services-basement:8.3.0] C:\vinitha\Akira\sp\super-plan\superPlan\build\intermediates\exploded-aar\com.google.android.gms\play-services-basement\8.3.0\AndroidManifest.xml:18:5-42
MERGED from [com.android.support:support-v4:22.2.0] C:\vinitha\Akira\sp\super-plan\superPlan\build\intermediates\exploded-aar\com.android.support\support-v4\22.2.0\AndroidManifest.xml:20:5-43
MERGED from [super-plan:viewpagerindicatorlibrary:unspecified] C:\vinitha\Akira\sp\super-plan\superPlan\build\intermediates\exploded-aar\super-plan\viewpagerindicatorlibrary\unspecified\AndroidManifest.xml:7:5-9:41
MERGED from [com.android.support:support-v4:22.2.0] C:\vinitha\Akira\sp\super-plan\superPlan\build\intermediates\exploded-aar\com.android.support\support-v4\22.2.0\AndroidManifest.xml:20:5-43
MERGED from [com.android.support:appcompat-v7:22.2.0] C:\vinitha\Akira\sp\super-plan\superPlan\build\intermediates\exploded-aar\com.android.support\appcompat-v7\22.2.0\AndroidManifest.xml:20:5-43
MERGED from [com.android.support:support-v4:22.2.0] C:\vinitha\Akira\sp\super-plan\superPlan\build\intermediates\exploded-aar\com.android.support\support-v4\22.2.0\AndroidManifest.xml:20:5-43
MERGED from [com.astuetz:pagerslidingtabstrip:1.0.1] C:\vinitha\Akira\sp\super-plan\superPlan\build\intermediates\exploded-aar\com.astuetz\pagerslidingtabstrip\1.0.1\AndroidManifest.xml:2:5-72
MERGED from [com.android.support:support-v4:22.2.0] C:\vinitha\Akira\sp\super-plan\superPlan\build\intermediates\exploded-aar\com.android.support\support-v4\22.2.0\AndroidManifest.xml:20:5-43
MERGED from [com.android.support:multidex:1.0.1] C:\vinitha\Akira\sp\super-plan\superPlan\build\intermediates\exploded-aar\com.android.support\multidex\1.0.1\AndroidManifest.xml:18:5-42
MERGED from [com.google.android.gms:play-services:8.3.0] C:\vinitha\Akira\sp\super-plan\superPlan\build\intermediates\exploded-aar\com.google.android.gms\play-services\8.3.0\AndroidManifest.xml:18:5-42
MERGED from [com.google.android.gms:play-services-ads:8.3.0] C:\vinitha\Akira\sp\super-plan\superPlan\build\intermediates\exploded-aar\com.google.android.gms\play-services-ads\8.3.0\AndroidManifest.xml:23:5-42
MERGED from [com.google.android.gms:play-services-basement:8.3.0] C:\vinitha\Akira\sp\super-plan\superPlan\build\intermediates\exploded-aar\com.google.android.gms\play-services-basement\8.3.0\AndroidManifest.xml:18:5-42
MERGED from [com.android.support:support-v4:22.2.0] C:\vinitha\Akira\sp\super-plan\superPlan\build\intermediates\exploded-aar\com.android.support\support-v4\22.2.0\AndroidManifest.xml:20:5-43
MERGED from [com.google.android.gms:play-services-analytics:8.3.0] C:\vinitha\Akira\sp\super-plan\superPlan\build\intermediates\exploded-aar\com.google.android.gms\play-services-analytics\8.3.0\AndroidManifest.xml:18:5-42
MERGED from [com.google.android.gms:play-services-basement:8.3.0] C:\vinitha\Akira\sp\super-plan\superPlan\build\intermediates\exploded-aar\com.google.android.gms\play-services-basement\8.3.0\AndroidManifest.xml:18:5-42
MERGED from [com.android.support:support-v4:22.2.0] C:\vinitha\Akira\sp\super-plan\superPlan\build\intermediates\exploded-aar\com.android.support\support-v4\22.2.0\AndroidManifest.xml:20:5-43
MERGED from [com.google.android.gms:play-services-appindexing:8.3.0] C:\vinitha\Akira\sp\super-plan\superPlan\build\intermediates\exploded-aar\com.google.android.gms\play-services-appindexing\8.3.0\AndroidManifest.xml:18:5-42
MERGED from [com.google.android.gms:play-services-basement:8.3.0] C:\vinitha\Akira\sp\super-plan\superPlan\build\intermediates\exploded-aar\com.google.android.gms\play-services-basement\8.3.0\AndroidManifest.xml:18:5-42
MERGED from [com.android.support:support-v4:22.2.0] C:\vinitha\Akira\sp\super-plan\superPlan\build\intermediates\exploded-aar\com.android.support\support-v4\22.2.0\AndroidManifest.xml:20:5-43
MERGED from [com.google.android.gms:play-services-appinvite:8.3.0] C:\vinitha\Akira\sp\super-plan\superPlan\build\intermediates\exploded-aar\com.google.android.gms\play-services-appinvite\8.3.0\AndroidManifest.xml:18:5-42
MERGED from [com.google.android.gms:play-services-base:8.3.0] C:\vinitha\Akira\sp\super-plan\superPlan\build\intermediates\exploded-aar\com.google.android.gms\play-services-base\8.3.0\AndroidManifest.xml:18:5-42
MERGED from [com.google.android.gms:play-services-basement:8.3.0] C:\vinitha\Akira\sp\super-plan\superPlan\build\intermediates\exploded-aar\com.google.android.gms\play-services-basement\8.3.0\AndroidManifest.xml:18:5-42
MERGED from [com.android.support:support-v4:22.2.0] C:\vinitha\Akira\sp\super-plan\superPlan\build\intermediates\exploded-aar\com.android.support\support-v4\22.2.0\AndroidManifest.xml:20:5-43
MERGED from [com.google.android.gms:play-services-appstate:8.3.0] C:\vinitha\Akira\sp\super-plan\superPlan\build\intermediates\exploded-aar\com.google.android.gms\play-services-appstate\8.3.0\AndroidManifest.xml:18:5-42
MERGED from [com.google.android.gms:play-services-base:8.3.0] C:\vinitha\Akira\sp\super-plan\superPlan\build\intermediates\exploded-aar\com.google.android.gms\play-services-base\8.3.0\AndroidManifest.xml:18:5-42
MERGED from [com.google.android.gms:play-services-basement:8.3.0] C:\vinitha\Akira\sp\super-plan\superPlan\build\intermediates\exploded-aar\com.google.android.gms\play-services-basement\8.3.0\AndroidManifest.xml:18:5-42
MERGED from [com.android.support:support-v4:22.2.0] C:\vinitha\Akira\sp\super-plan\superPlan\build\intermediates\exploded-aar\com.android.support\support-v4\22.2.0\AndroidManifest.xml:20:5-43
MERGED from [com.google.android.gms:play-services-auth:8.3.0] C:\vinitha\Akira\sp\super-plan\superPlan\build\intermediates\exploded-aar\com.google.android.gms\play-services-auth\8.3.0\AndroidManifest.xml:18:5-43
MERGED from [com.google.android.gms:play-services-base:8.3.0] C:\vinitha\Akira\sp\super-plan\superPlan\build\intermediates\exploded-aar\com.google.android.gms\play-services-base\8.3.0\AndroidManifest.xml:18:5-42
MERGED from [com.google.android.gms:play-services-basement:8.3.0] C:\vinitha\Akira\sp\super-plan\superPlan\build\intermediates\exploded-aar\com.google.android.gms\play-services-basement\8.3.0\AndroidManifest.xml:18:5-42
MERGED from [com.android.support:support-v4:22.2.0] C:\vinitha\Akira\sp\super-plan\superPlan\build\intermediates\exploded-aar\com.android.support\support-v4\22.2.0\AndroidManifest.xml:20:5-43
MERGED from [com.google.android.gms:play-services-base:8.3.0] C:\vinitha\Akira\sp\super-plan\superPlan\build\intermediates\exploded-aar\com.google.android.gms\play-services-base\8.3.0\AndroidManifest.xml:18:5-42
MERGED from [com.google.android.gms:play-services-basement:8.3.0] C:\vinitha\Akira\sp\super-plan\superPlan\build\intermediates\exploded-aar\com.google.android.gms\play-services-basement\8.3.0\AndroidManifest.xml:18:5-42
MERGED from [com.android.support:support-v4:22.2.0] C:\vinitha\Akira\sp\super-plan\superPlan\build\intermediates\exploded-aar\com.android.support\support-v4\22.2.0\AndroidManifest.xml:20:5-43
MERGED from [com.google.android.gms:play-services-basement:8.3.0] C:\vinitha\Akira\sp\super-plan\superPlan\build\intermediates\exploded-aar\com.google.android.gms\play-services-basement\8.3.0\AndroidManifest.xml:18:5-42
MERGED from [com.android.support:support-v4:22.2.0] C:\vinitha\Akira\sp\super-plan\superPlan\build\intermediates\exploded-aar\com.android.support\support-v4\22.2.0\AndroidManifest.xml:20:5-43
MERGED from [com.google.android.gms:play-services-cast:8.3.0] C:\vinitha\Akira\sp\super-plan\superPlan\build\intermediates\exploded-aar\com.google.android.gms\play-services-cast\8.3.0\AndroidManifest.xml:18:5-42
MERGED from [com.google.android.gms:play-services-base:8.3.0] C:\vinitha\Akira\sp\super-plan\superPlan\build\intermediates\exploded-aar\com.google.android.gms\play-services-base\8.3.0\AndroidManifest.xml:18:5-42
MERGED from [com.google.android.gms:play-services-basement:8.3.0] C:\vinitha\Akira\sp\super-plan\superPlan\build\intermediates\exploded-aar\com.google.android.gms\play-services-basement\8.3.0\AndroidManifest.xml:18:5-42
MERGED from [com.android.support:support-v4:22.2.0] C:\vinitha\Akira\sp\super-plan\superPlan\build\intermediates\exploded-aar\com.android.support\support-v4\22.2.0\AndroidManifest.xml:20:5-43
MERGED from [com.android.support:mediarouter-v7:22.2.0] C:\vinitha\Akira\sp\super-plan\superPlan\build\intermediates\exploded-aar\com.android.support\mediarouter-v7\22.2.0\AndroidManifest.xml:20:5-43
MERGED from [com.android.support:appcompat-v7:22.2.0] C:\vinitha\Akira\sp\super-plan\superPlan\build\intermediates\exploded-aar\com.android.support\appcompat-v7\22.2.0\AndroidManifest.xml:20:5-43
MERGED from [com.android.support:support-v4:22.2.0] C:\vinitha\Akira\sp\super-plan\superPlan\build\intermediates\exploded-aar\com.android.support\support-v4\22.2.0\AndroidManifest.xml:20:5-43
MERGED from [com.google.android.gms:play-services-drive:8.3.0] C:\vinitha\Akira\sp\super-plan\superPlan\build\intermediates\exploded-aar\com.google.android.gms\play-services-drive\8.3.0\AndroidManifest.xml:18:5-42
MERGED from [com.google.android.gms:play-services-base:8.3.0] C:\vinitha\Akira\sp\super-plan\superPlan\build\intermediates\exploded-aar\com.google.android.gms\play-services-base\8.3.0\AndroidManifest.xml:18:5-42
MERGED from [com.google.android.gms:play-services-basement:8.3.0] C:\vinitha\Akira\sp\super-plan\superPlan\build\intermediates\exploded-aar\com.google.android.gms\play-services-basement\8.3.0\AndroidManifest.xml:18:5-42
MERGED from [com.android.support:support-v4:22.2.0] C:\vinitha\Akira\sp\super-plan\superPlan\build\intermediates\exploded-aar\com.android.support\support-v4\22.2.0\AndroidManifest.xml:20:5-43
MERGED from [com.google.android.gms:play-services-fitness:8.3.0] C:\vinitha\Akira\sp\super-plan\superPlan\build\intermediates\exploded-aar\com.google.android.gms\play-services-fitness\8.3.0\AndroidManifest.xml:18:5-42
MERGED from [com.google.android.gms:play-services-base:8.3.0] C:\vinitha\Akira\sp\super-plan\superPlan\build\intermediates\exploded-aar\com.google.android.gms\play-services-base\8.3.0\AndroidManifest.xml:18:5-42
MERGED from [com.google.android.gms:play-services-basement:8.3.0] C:\vinitha\Akira\sp\super-plan\superPlan\build\intermediates\exploded-aar\com.google.android.gms\play-services-basement\8.3.0\AndroidManifest.xml:18:5-42
MERGED from [com.android.support:support-v4:22.2.0] C:\vinitha\Akira\sp\super-plan\superPlan\build\intermediates\exploded-aar\com.android.support\support-v4\22.2.0\AndroidManifest.xml:20:5-43
MERGED from [com.google.android.gms:play-services-location:8.3.0] C:\vinitha\Akira\sp\super-plan\superPlan\build\intermediates\exploded-aar\com.google.android.gms\play-services-location\8.3.0\AndroidManifest.xml:18:5-42
MERGED from [com.google.android.gms:play-services-base:8.3.0] C:\vinitha\Akira\sp\super-plan\superPlan\build\intermediates\exploded-aar\com.google.android.gms\play-services-base\8.3.0\AndroidManifest.xml:18:5-42
MERGED from [com.google.android.gms:play-services-basement:8.3.0] C:\vinitha\Akira\sp\super-plan\superPlan\build\intermediates\exploded-aar\com.google.android.gms\play-services-basement\8.3.0\AndroidManifest.xml:18:5-42
MERGED from [com.android.support:support-v4:22.2.0] C:\vinitha\Akira\sp\super-plan\superPlan\build\intermediates\exploded-aar\com.android.support\support-v4\22.2.0\AndroidManifest.xml:20:5-43
MERGED from [com.google.android.gms:play-services-maps:8.3.0] C:\vinitha\Akira\sp\super-plan\superPlan\build\intermediates\exploded-aar\com.google.android.gms\play-services-maps\8.3.0\AndroidManifest.xml:26:5-42
MERGED from [com.google.android.gms:play-services-base:8.3.0] C:\vinitha\Akira\sp\super-plan\superPlan\build\intermediates\exploded-aar\com.google.android.gms\play-services-base\8.3.0\AndroidManifest.xml:18:5-42
MERGED from [com.google.android.gms:play-services-basement:8.3.0] C:\vinitha\Akira\sp\super-plan\superPlan\build\intermediates\exploded-aar\com.google.android.gms\play-services-basement\8.3.0\AndroidManifest.xml:18:5-42
MERGED from [com.android.support:support-v4:22.2.0] C:\vinitha\Akira\sp\super-plan\superPlan\build\intermediates\exploded-aar\com.android.support\support-v4\22.2.0\AndroidManifest.xml:20:5-43
MERGED from [com.google.android.gms:play-services-games:8.3.0] C:\vinitha\Akira\sp\super-plan\superPlan\build\intermediates\exploded-aar\com.google.android.gms\play-services-games\8.3.0\AndroidManifest.xml:18:5-42
MERGED from [com.google.android.gms:play-services-base:8.3.0] C:\vinitha\Akira\sp\super-plan\superPlan\build\intermediates\exploded-aar\com.google.android.gms\play-services-base\8.3.0\AndroidManifest.xml:18:5-42
MERGED from [com.google.android.gms:play-services-basement:8.3.0] C:\vinitha\Akira\sp\super-plan\superPlan\build\intermediates\exploded-aar\com.google.android.gms\play-services-basement\8.3.0\AndroidManifest.xml:18:5-42
MERGED from [com.android.support:support-v4:22.2.0] C:\vinitha\Akira\sp\super-plan\superPlan\build\intermediates\exploded-aar\com.android.support\support-v4\22.2.0\AndroidManifest.xml:20:5-43
MERGED from [com.google.android.gms:play-services-drive:8.3.0] C:\vinitha\Akira\sp\super-plan\superPlan\build\intermediates\exploded-aar\com.google.android.gms\play-services-drive\8.3.0\AndroidManifest.xml:18:5-42
MERGED from [com.google.android.gms:play-services-base:8.3.0] C:\vinitha\Akira\sp\super-plan\superPlan\build\intermediates\exploded-aar\com.google.android.gms\play-services-base\8.3.0\AndroidManifest.xml:18:5-42
MERGED from [com.google.android.gms:play-services-basement:8.3.0] C:\vinitha\Akira\sp\super-plan\superPlan\build\intermediates\exploded-aar\com.google.android.gms\play-services-basement\8.3.0\AndroidManifest.xml:18:5-42
MERGED from [com.android.support:support-v4:22.2.0] C:\vinitha\Akira\sp\super-plan\superPlan\build\intermediates\exploded-aar\com.android.support\support-v4\22.2.0\AndroidManifest.xml:20:5-43
MERGED from [com.google.android.gms:play-services-gcm:8.3.0] C:\vinitha\Akira\sp\super-plan\superPlan\build\intermediates\exploded-aar\com.google.android.gms\play-services-gcm\8.3.0\AndroidManifest.xml:18:5-42
MERGED from [com.google.android.gms:play-services-base:8.3.0] C:\vinitha\Akira\sp\super-plan\superPlan\build\intermediates\exploded-aar\com.google.android.gms\play-services-base\8.3.0\AndroidManifest.xml:18:5-42
MERGED from [com.google.android.gms:play-services-basement:8.3.0] C:\vinitha\Akira\sp\super-plan\superPlan\build\intermediates\exploded-aar\com.google.android.gms\play-services-basement\8.3.0\AndroidManifest.xml:18:5-42
MERGED from [com.android.support:support-v4:22.2.0] C:\vinitha\Akira\sp\super-plan\superPlan\build\intermediates\exploded-aar\com.android.support\support-v4\22.2.0\AndroidManifest.xml:20:5-43
MERGED from [com.google.android.gms:play-services-measurement:8.3.0] C:\vinitha\Akira\sp\super-plan\superPlan\build\intermediates\exploded-aar\com.google.android.gms\play-services-measurement\8.3.0\AndroidManifest.xml:18:5-42
MERGED from [com.google.android.gms:play-services-basement:8.3.0] C:\vinitha\Akira\sp\super-plan\superPlan\build\intermediates\exploded-aar\com.google.android.gms\play-services-basement\8.3.0\AndroidManifest.xml:18:5-42
MERGED from [com.android.support:support-v4:22.2.0] C:\vinitha\Akira\sp\super-plan\superPlan\build\intermediates\exploded-aar\com.android.support\support-v4\22.2.0\AndroidManifest.xml:20:5-43
MERGED from [com.google.android.gms:play-services-identity:8.3.0] C:\vinitha\Akira\sp\super-plan\superPlan\build\intermediates\exploded-aar\com.google.android.gms\play-services-identity\8.3.0\AndroidManifest.xml:18:5-42
MERGED from [com.google.android.gms:play-services-base:8.3.0] C:\vinitha\Akira\sp\super-plan\superPlan\build\intermediates\exploded-aar\com.google.android.gms\play-services-base\8.3.0\AndroidManifest.xml:18:5-42
MERGED from [com.google.android.gms:play-services-basement:8.3.0] C:\vinitha\Akira\sp\super-plan\superPlan\build\intermediates\exploded-aar\com.google.android.gms\play-services-basement\8.3.0\AndroidManifest.xml:18:5-42
MERGED from [com.android.support:support-v4:22.2.0] C:\vinitha\Akira\sp\super-plan\superPlan\build\intermediates\exploded-aar\com.android.support\support-v4\22.2.0\AndroidManifest.xml:20:5-43
MERGED from [com.google.android.gms:play-services-location:8.3.0] C:\vinitha\Akira\sp\super-plan\superPlan\build\intermediates\exploded-aar\com.google.android.gms\play-services-location\8.3.0\AndroidManifest.xml:18:5-42
MERGED from [com.google.android.gms:play-services-base:8.3.0] C:\vinitha\Akira\sp\super-plan\superPlan\build\intermediates\exploded-aar\com.google.android.gms\play-services-base\8.3.0\AndroidManifest.xml:18:5-42
MERGED from [com.google.android.gms:play-services-basement:8.3.0] C:\vinitha\Akira\sp\super-plan\superPlan\build\intermediates\exploded-aar\com.google.android.gms\play-services-basement\8.3.0\AndroidManifest.xml:18:5-42
MERGED from [com.android.support:support-v4:22.2.0] C:\vinitha\Akira\sp\super-plan\superPlan\build\intermediates\exploded-aar\com.android.support\support-v4\22.2.0\AndroidManifest.xml:20:5-43
MERGED from [com.google.android.gms:play-services-maps:8.3.0] C:\vinitha\Akira\sp\super-plan\superPlan\build\intermediates\exploded-aar\com.google.android.gms\play-services-maps\8.3.0\AndroidManifest.xml:26:5-42
MERGED from [com.google.android.gms:play-services-base:8.3.0] C:\vinitha\Akira\sp\super-plan\superPlan\build\intermediates\exploded-aar\com.google.android.gms\play-services-base\8.3.0\AndroidManifest.xml:18:5-42
MERGED from [com.google.android.gms:play-services-basement:8.3.0] C:\vinitha\Akira\sp\super-plan\superPlan\build\intermediates\exploded-aar\com.google.android.gms\play-services-basement\8.3.0\AndroidManifest.xml:18:5-42
MERGED from [com.android.support:support-v4:22.2.0] C:\vinitha\Akira\sp\super-plan\superPlan\build\intermediates\exploded-aar\com.android.support\support-v4\22.2.0\AndroidManifest.xml:20:5-43
MERGED from [com.google.android.gms:play-services-maps:8.3.0] C:\vinitha\Akira\sp\super-plan\superPlan\build\intermediates\exploded-aar\com.google.android.gms\play-services-maps\8.3.0\AndroidManifest.xml:26:5-42
MERGED from [com.google.android.gms:play-services-base:8.3.0] C:\vinitha\Akira\sp\super-plan\superPlan\build\intermediates\exploded-aar\com.google.android.gms\play-services-base\8.3.0\AndroidManifest.xml:18:5-42
MERGED from [com.google.android.gms:play-services-basement:8.3.0] C:\vinitha\Akira\sp\super-plan\superPlan\build\intermediates\exploded-aar\com.google.android.gms\play-services-basement\8.3.0\AndroidManifest.xml:18:5-42
MERGED from [com.android.support:support-v4:22.2.0] C:\vinitha\Akira\sp\super-plan\superPlan\build\intermediates\exploded-aar\com.android.support\support-v4\22.2.0\AndroidManifest.xml:20:5-43
MERGED from [com.google.android.gms:play-services-measurement:8.3.0] C:\vinitha\Akira\sp\super-plan\superPlan\build\intermediates\exploded-aar\com.google.android.gms\play-services-measurement\8.3.0\AndroidManifest.xml:18:5-42
MERGED from [com.google.android.gms:play-services-basement:8.3.0] C:\vinitha\Akira\sp\super-plan\superPlan\build\intermediates\exploded-aar\com.google.android.gms\play-services-basement\8.3.0\AndroidManifest.xml:18:5-42
MERGED from [com.android.support:support-v4:22.2.0] C:\vinitha\Akira\sp\super-plan\superPlan\build\intermediates\exploded-aar\com.android.support\support-v4\22.2.0\AndroidManifest.xml:20:5-43
MERGED from [com.google.android.gms:play-services-nearby:8.3.0] C:\vinitha\Akira\sp\super-plan\superPlan\build\intermediates\exploded-aar\com.google.android.gms\play-services-nearby\8.3.0\AndroidManifest.xml:18:5-42
MERGED from [com.google.android.gms:play-services-base:8.3.0] C:\vinitha\Akira\sp\super-plan\superPlan\build\intermediates\exploded-aar\com.google.android.gms\play-services-base\8.3.0\AndroidManifest.xml:18:5-42
MERGED from [com.google.android.gms:play-services-basement:8.3.0] C:\vinitha\Akira\sp\super-plan\superPlan\build\intermediates\exploded-aar\com.google.android.gms\play-services-basement\8.3.0\AndroidManifest.xml:18:5-42
MERGED from [com.android.support:support-v4:22.2.0] C:\vinitha\Akira\sp\super-plan\superPlan\build\intermediates\exploded-aar\com.android.support\support-v4\22.2.0\AndroidManifest.xml:20:5-43
MERGED from [com.google.android.gms:play-services-panorama:8.3.0] C:\vinitha\Akira\sp\super-plan\superPlan\build\intermediates\exploded-aar\com.google.android.gms\play-services-panorama\8.3.0\AndroidManifest.xml:18:5-42
MERGED from [com.google.android.gms:play-services-base:8.3.0] C:\vinitha\Akira\sp\super-plan\superPlan\build\intermediates\exploded-aar\com.google.android.gms\play-services-base\8.3.0\AndroidManifest.xml:18:5-42
MERGED from [com.google.android.gms:play-services-basement:8.3.0] C:\vinitha\Akira\sp\super-plan\superPlan\build\intermediates\exploded-aar\com.google.android.gms\play-services-basement\8.3.0\AndroidManifest.xml:18:5-42
MERGED from [com.android.support:support-v4:22.2.0] C:\vinitha\Akira\sp\super-plan\superPlan\build\intermediates\exploded-aar\com.android.support\support-v4\22.2.0\AndroidManifest.xml:20:5-43
MERGED from [com.google.android.gms:play-services-plus:8.3.0] C:\vinitha\Akira\sp\super-plan\superPlan\build\intermediates\exploded-aar\com.google.android.gms\play-services-plus\8.3.0\AndroidManifest.xml:18:5-42
MERGED from [com.google.android.gms:play-services-base:8.3.0] C:\vinitha\Akira\sp\super-plan\superPlan\build\intermediates\exploded-aar\com.google.android.gms\play-services-base\8.3.0\AndroidManifest.xml:18:5-42
MERGED from [com.google.android.gms:play-services-basement:8.3.0] C:\vinitha\Akira\sp\super-plan\superPlan\build\intermediates\exploded-aar\com.google.android.gms\play-services-basement\8.3.0\AndroidManifest.xml:18:5-42
MERGED from [com.android.support:support-v4:22.2.0] C:\vinitha\Akira\sp\super-plan\superPlan\build\intermediates\exploded-aar\com.android.support\support-v4\22.2.0\AndroidManifest.xml:20:5-43
MERGED from [com.google.android.gms:play-services-safetynet:8.3.0] C:\vinitha\Akira\sp\super-plan\superPlan\build\intermediates\exploded-aar\com.google.android.gms\play-services-safetynet\8.3.0\AndroidManifest.xml:18:5-42
MERGED from [com.google.android.gms:play-services-base:8.3.0] C:\vinitha\Akira\sp\super-plan\superPlan\build\intermediates\exploded-aar\com.google.android.gms\play-services-base\8.3.0\AndroidManifest.xml:18:5-42
MERGED from [com.google.android.gms:play-services-basement:8.3.0] C:\vinitha\Akira\sp\super-plan\superPlan\build\intermediates\exploded-aar\com.google.android.gms\play-services-basement\8.3.0\AndroidManifest.xml:18:5-42
MERGED from [com.android.support:support-v4:22.2.0] C:\vinitha\Akira\sp\super-plan\superPlan\build\intermediates\exploded-aar\com.android.support\support-v4\22.2.0\AndroidManifest.xml:20:5-43
MERGED from [com.google.android.gms:play-services-vision:8.3.0] C:\vinitha\Akira\sp\super-plan\superPlan\build\intermediates\exploded-aar\com.google.android.gms\play-services-vision\8.3.0\AndroidManifest.xml:4:5-42
MERGED from [com.google.android.gms:play-services-base:8.3.0] C:\vinitha\Akira\sp\super-plan\superPlan\build\intermediates\exploded-aar\com.google.android.gms\play-services-base\8.3.0\AndroidManifest.xml:18:5-42
MERGED from [com.google.android.gms:play-services-basement:8.3.0] C:\vinitha\Akira\sp\super-plan\superPlan\build\intermediates\exploded-aar\com.google.android.gms\play-services-basement\8.3.0\AndroidManifest.xml:18:5-42
MERGED from [com.android.support:support-v4:22.2.0] C:\vinitha\Akira\sp\super-plan\superPlan\build\intermediates\exploded-aar\com.android.support\support-v4\22.2.0\AndroidManifest.xml:20:5-43
MERGED from [com.google.android.gms:play-services-wallet:8.3.0] C:\vinitha\Akira\sp\super-plan\superPlan\build\intermediates\exploded-aar\com.google.android.gms\play-services-wallet\8.3.0\AndroidManifest.xml:19:5-42
MERGED from [com.google.android.gms:play-services-base:8.3.0] C:\vinitha\Akira\sp\super-plan\superPlan\build\intermediates\exploded-aar\com.google.android.gms\play-services-base\8.3.0\AndroidManifest.xml:18:5-42
MERGED from [com.google.android.gms:play-services-basement:8.3.0] C:\vinitha\Akira\sp\super-plan\superPlan\build\intermediates\exploded-aar\com.google.android.gms\play-services-basement\8.3.0\AndroidManifest.xml:18:5-42
MERGED from [com.android.support:support-v4:22.2.0] C:\vinitha\Akira\sp\super-plan\superPlan\build\intermediates\exploded-aar\com.android.support\support-v4\22.2.0\AndroidManifest.xml:20:5-43
MERGED from [com.google.android.gms:play-services-identity:8.3.0] C:\vinitha\Akira\sp\super-plan\superPlan\build\intermediates\exploded-aar\com.google.android.gms\play-services-identity\8.3.0\AndroidManifest.xml:18:5-42
MERGED from [com.google.android.gms:play-services-base:8.3.0] C:\vinitha\Akira\sp\super-plan\superPlan\build\intermediates\exploded-aar\com.google.android.gms\play-services-base\8.3.0\AndroidManifest.xml:18:5-42
MERGED from [com.google.android.gms:play-services-basement:8.3.0] C:\vinitha\Akira\sp\super-plan\superPlan\build\intermediates\exploded-aar\com.google.android.gms\play-services-basement\8.3.0\AndroidManifest.xml:18:5-42
MERGED from [com.android.support:support-v4:22.2.0] C:\vinitha\Akira\sp\super-plan\superPlan\build\intermediates\exploded-aar\com.android.support\support-v4\22.2.0\AndroidManifest.xml:20:5-43
MERGED from [com.google.android.gms:play-services-maps:8.3.0] C:\vinitha\Akira\sp\super-plan\superPlan\build\intermediates\exploded-aar\com.google.android.gms\play-services-maps\8.3.0\AndroidManifest.xml:26:5-42
MERGED from [com.google.android.gms:play-services-base:8.3.0] C:\vinitha\Akira\sp\super-plan\superPlan\build\intermediates\exploded-aar\com.google.android.gms\play-services-base\8.3.0\AndroidManifest.xml:18:5-42
MERGED from [com.google.android.gms:play-services-basement:8.3.0] C:\vinitha\Akira\sp\super-plan\superPlan\build\intermediates\exploded-aar\com.google.android.gms\play-services-basement\8.3.0\AndroidManifest.xml:18:5-42
MERGED from [com.android.support:support-v4:22.2.0] C:\vinitha\Akira\sp\super-plan\superPlan\build\intermediates\exploded-aar\com.android.support\support-v4\22.2.0\AndroidManifest.xml:20:5-43
MERGED from [com.google.android.gms:play-services-wearable:8.3.0] C:\vinitha\Akira\sp\super-plan\superPlan\build\intermediates\exploded-aar\com.google.android.gms\play-services-wearable\8.3.0\AndroidManifest.xml:18:5-42
MERGED from [com.google.android.gms:play-services-base:8.3.0] C:\vinitha\Akira\sp\super-plan\superPlan\build\intermediates\exploded-aar\com.google.android.gms\play-services-base\8.3.0\AndroidManifest.xml:18:5-42
MERGED from [com.google.android.gms:play-services-basement:8.3.0] C:\vinitha\Akira\sp\super-plan\superPlan\build\intermediates\exploded-aar\com.google.android.gms\play-services-basement\8.3.0\AndroidManifest.xml:18:5-42
MERGED from [com.android.support:support-v4:22.2.0] C:\vinitha\Akira\sp\super-plan\superPlan\build\intermediates\exploded-aar\com.android.support\support-v4\22.2.0\AndroidManifest.xml:20:5-43
	android:targetSdkVersion
		ADDED from C:\vinitha\Akira\sp\super-plan\superPlan\src\main\AndroidManifest.xml:10:3-32
		INJECTED from C:\vinitha\Akira\sp\super-plan\superPlan\src\main\AndroidManifest.xml
		INJECTED from C:\vinitha\Akira\sp\super-plan\superPlan\src\main\AndroidManifest.xml
	android:minSdkVersion
		ADDED from C:\vinitha\Akira\sp\super-plan\superPlan\src\main\AndroidManifest.xml:9:3-28
		INJECTED from C:\vinitha\Akira\sp\super-plan\superPlan\src\main\AndroidManifest.xml
		INJECTED from C:\vinitha\Akira\sp\super-plan\superPlan\src\main\AndroidManifest.xml
uses-permission#android.permission.GET_ACCOUNTS
ADDED from C:\vinitha\Akira\sp\super-plan\superPlan\src\main\AndroidManifest.xml:14:2-68
MERGED from [com.google.android.gms:play-services-wallet:8.3.0] C:\vinitha\Akira\sp\super-plan\superPlan\build\intermediates\exploded-aar\com.google.android.gms\play-services-wallet\8.3.0\AndroidManifest.xml:21:5-70
	android:name
		ADDED from C:\vinitha\Akira\sp\super-plan\superPlan\src\main\AndroidManifest.xml:14:19-65
uses-permission#android.permission.CHANGE_WIFI_STATE
ADDED from C:\vinitha\Akira\sp\super-plan\superPlan\src\main\AndroidManifest.xml:15:2-73
	android:name
		ADDED from C:\vinitha\Akira\sp\super-plan\superPlan\src\main\AndroidManifest.xml:15:19-70
uses-permission#android.permission.READ_CALL_LOG
ADDED from C:\vinitha\Akira\sp\super-plan\superPlan\src\main\AndroidManifest.xml:16:2-69
	android:name
		ADDED from C:\vinitha\Akira\sp\super-plan\superPlan\src\main\AndroidManifest.xml:16:19-66
uses-permission#android.permission.INTERNET
ADDED from C:\vinitha\Akira\sp\super-plan\superPlan\src\main\AndroidManifest.xml:17:2-64
MERGED from [com.google.android.gms:play-services-measurement:8.3.0] C:\vinitha\Akira\sp\super-plan\superPlan\build\intermediates\exploded-aar\com.google.android.gms\play-services-measurement\8.3.0\AndroidManifest.xml:21:5-67
MERGED from [com.google.android.gms:play-services-ads:8.3.0] C:\vinitha\Akira\sp\super-plan\superPlan\build\intermediates\exploded-aar\com.google.android.gms\play-services-ads\8.3.0\AndroidManifest.xml:20:5-66
MERGED from [com.google.android.gms:play-services-analytics:8.3.0] C:\vinitha\Akira\sp\super-plan\superPlan\build\intermediates\exploded-aar\com.google.android.gms\play-services-analytics\8.3.0\AndroidManifest.xml:21:5-67
MERGED from [com.google.android.gms:play-services-appinvite:8.3.0] C:\vinitha\Akira\sp\super-plan\superPlan\build\intermediates\exploded-aar\com.google.android.gms\play-services-appinvite\8.3.0\AndroidManifest.xml:19:5-67
MERGED from [com.google.android.gms:play-services-maps:8.3.0] C:\vinitha\Akira\sp\super-plan\superPlan\build\intermediates\exploded-aar\com.google.android.gms\play-services-maps\8.3.0\AndroidManifest.xml:21:5-66
MERGED from [com.google.android.gms:play-services-gcm:8.3.0] C:\vinitha\Akira\sp\super-plan\superPlan\build\intermediates\exploded-aar\com.google.android.gms\play-services-gcm\8.3.0\AndroidManifest.xml:22:5-67
MERGED from [com.google.android.gms:play-services-measurement:8.3.0] C:\vinitha\Akira\sp\super-plan\superPlan\build\intermediates\exploded-aar\com.google.android.gms\play-services-measurement\8.3.0\AndroidManifest.xml:21:5-67
MERGED from [com.google.android.gms:play-services-maps:8.3.0] C:\vinitha\Akira\sp\super-plan\superPlan\build\intermediates\exploded-aar\com.google.android.gms\play-services-maps\8.3.0\AndroidManifest.xml:21:5-66
MERGED from [com.google.android.gms:play-services-maps:8.3.0] C:\vinitha\Akira\sp\super-plan\superPlan\build\intermediates\exploded-aar\com.google.android.gms\play-services-maps\8.3.0\AndroidManifest.xml:21:5-66
MERGED from [com.google.android.gms:play-services-measurement:8.3.0] C:\vinitha\Akira\sp\super-plan\superPlan\build\intermediates\exploded-aar\com.google.android.gms\play-services-measurement\8.3.0\AndroidManifest.xml:21:5-67
MERGED from [com.google.android.gms:play-services-wallet:8.3.0] C:\vinitha\Akira\sp\super-plan\superPlan\build\intermediates\exploded-aar\com.google.android.gms\play-services-wallet\8.3.0\AndroidManifest.xml:20:5-66
MERGED from [com.google.android.gms:play-services-maps:8.3.0] C:\vinitha\Akira\sp\super-plan\superPlan\build\intermediates\exploded-aar\com.google.android.gms\play-services-maps\8.3.0\AndroidManifest.xml:21:5-66
	android:name
		ADDED from C:\vinitha\Akira\sp\super-plan\superPlan\src\main\AndroidManifest.xml:17:19-61
uses-permission#android.permission.CALL_PRIVILEGED
ADDED from C:\vinitha\Akira\sp\super-plan\superPlan\src\main\AndroidManifest.xml:18:2-20:41
	android:name
		ADDED from C:\vinitha\Akira\sp\super-plan\superPlan\src\main\AndroidManifest.xml:19:3-52
	tools:ignore
		ADDED from C:\vinitha\Akira\sp\super-plan\superPlan\src\main\AndroidManifest.xml:20:3-38
uses-permission#android.permission.PROCESS_OUTGOING_CALLS
ADDED from C:\vinitha\Akira\sp\super-plan\superPlan\src\main\AndroidManifest.xml:21:2-78
	android:name
		ADDED from C:\vinitha\Akira\sp\super-plan\superPlan\src\main\AndroidManifest.xml:21:19-75
uses-permission#android.permission.ACCESS_NETWORK_STATE
ADDED from C:\vinitha\Akira\sp\super-plan\superPlan\src\main\AndroidManifest.xml:22:2-76
MERGED from [com.google.android.gms:play-services-measurement:8.3.0] C:\vinitha\Akira\sp\super-plan\superPlan\build\intermediates\exploded-aar\com.google.android.gms\play-services-measurement\8.3.0\AndroidManifest.xml:22:5-79
MERGED from [com.google.android.gms:play-services-ads:8.3.0] C:\vinitha\Akira\sp\super-plan\superPlan\build\intermediates\exploded-aar\com.google.android.gms\play-services-ads\8.3.0\AndroidManifest.xml:21:5-78
MERGED from [com.google.android.gms:play-services-analytics:8.3.0] C:\vinitha\Akira\sp\super-plan\superPlan\build\intermediates\exploded-aar\com.google.android.gms\play-services-analytics\8.3.0\AndroidManifest.xml:22:5-79
MERGED from [com.google.android.gms:play-services-maps:8.3.0] C:\vinitha\Akira\sp\super-plan\superPlan\build\intermediates\exploded-aar\com.google.android.gms\play-services-maps\8.3.0\AndroidManifest.xml:20:5-78
MERGED from [com.google.android.gms:play-services-measurement:8.3.0] C:\vinitha\Akira\sp\super-plan\superPlan\build\intermediates\exploded-aar\com.google.android.gms\play-services-measurement\8.3.0\AndroidManifest.xml:22:5-79
MERGED from [com.google.android.gms:play-services-maps:8.3.0] C:\vinitha\Akira\sp\super-plan\superPlan\build\intermediates\exploded-aar\com.google.android.gms\play-services-maps\8.3.0\AndroidManifest.xml:20:5-78
MERGED from [com.google.android.gms:play-services-maps:8.3.0] C:\vinitha\Akira\sp\super-plan\superPlan\build\intermediates\exploded-aar\com.google.android.gms\play-services-maps\8.3.0\AndroidManifest.xml:20:5-78
MERGED from [com.google.android.gms:play-services-measurement:8.3.0] C:\vinitha\Akira\sp\super-plan\superPlan\build\intermediates\exploded-aar\com.google.android.gms\play-services-measurement\8.3.0\AndroidManifest.xml:22:5-79
MERGED from [com.google.android.gms:play-services-nearby:8.3.0] C:\vinitha\Akira\sp\super-plan\superPlan\build\intermediates\exploded-aar\com.google.android.gms\play-services-nearby\8.3.0\AndroidManifest.xml:19:5-79
MERGED from [com.google.android.gms:play-services-maps:8.3.0] C:\vinitha\Akira\sp\super-plan\superPlan\build\intermediates\exploded-aar\com.google.android.gms\play-services-maps\8.3.0\AndroidManifest.xml:20:5-78
	android:name
		ADDED from C:\vinitha\Akira\sp\super-plan\superPlan\src\main\AndroidManifest.xml:22:19-73
uses-permission#android.permission.RECEIVE_SMS
ADDED from C:\vinitha\Akira\sp\super-plan\superPlan\src\main\AndroidManifest.xml:23:2-67
	android:name
		ADDED from C:\vinitha\Akira\sp\super-plan\superPlan\src\main\AndroidManifest.xml:23:19-64
uses-permission#android.permission.READ_SMS
ADDED from C:\vinitha\Akira\sp\super-plan\superPlan\src\main\AndroidManifest.xml:24:2-64
	android:name
		ADDED from C:\vinitha\Akira\sp\super-plan\superPlan\src\main\AndroidManifest.xml:24:19-61
uses-permission#android.permission.RECEIVE_BOOT_COMPLETED
ADDED from C:\vinitha\Akira\sp\super-plan\superPlan\src\main\AndroidManifest.xml:25:2-78
	android:name
		ADDED from C:\vinitha\Akira\sp\super-plan\superPlan\src\main\AndroidManifest.xml:25:19-75
uses-permission#android.permission.READ_PHONE_STATE
ADDED from C:\vinitha\Akira\sp\super-plan\superPlan\src\main\AndroidManifest.xml:26:2-72
	android:name
		ADDED from C:\vinitha\Akira\sp\super-plan\superPlan\src\main\AndroidManifest.xml:26:19-69
uses-permission#android.permission.BIND_ACCESSIBILITY_SERVICE
ADDED from C:\vinitha\Akira\sp\super-plan\superPlan\src\main\AndroidManifest.xml:27:2-82
	android:name
		ADDED from C:\vinitha\Akira\sp\super-plan\superPlan\src\main\AndroidManifest.xml:27:19-79
uses-permission#android.permission.READ_CONTACTS
ADDED from C:\vinitha\Akira\sp\super-plan\superPlan\src\main\AndroidManifest.xml:28:2-69
	android:name
		ADDED from C:\vinitha\Akira\sp\super-plan\superPlan\src\main\AndroidManifest.xml:28:19-66
uses-permission#android.permission.CALL_PHONE
ADDED from C:\vinitha\Akira\sp\super-plan\superPlan\src\main\AndroidManifest.xml:29:2-66
	android:name
		ADDED from C:\vinitha\Akira\sp\super-plan\superPlan\src\main\AndroidManifest.xml:29:19-63
uses-permission#android.permission.ACCESS_WIFI_STATE
ADDED from C:\vinitha\Akira\sp\super-plan\superPlan\src\main\AndroidManifest.xml:30:2-73
	android:name
		ADDED from C:\vinitha\Akira\sp\super-plan\superPlan\src\main\AndroidManifest.xml:30:19-70
uses-permission#android.permission.ACCESS_FINE_LOCATION
ADDED from C:\vinitha\Akira\sp\super-plan\superPlan\src\main\AndroidManifest.xml:31:2-76
	android:name
		ADDED from C:\vinitha\Akira\sp\super-plan\superPlan\src\main\AndroidManifest.xml:31:19-73
uses-permission#android.permission.SEND_SMS
ADDED from C:\vinitha\Akira\sp\super-plan\superPlan\src\main\AndroidManifest.xml:32:2-64
	android:name
		ADDED from C:\vinitha\Akira\sp\super-plan\superPlan\src\main\AndroidManifest.xml:32:19-61
uses-permission#android.permission.WAKE_LOCK
ADDED from C:\vinitha\Akira\sp\super-plan\superPlan\src\main\AndroidManifest.xml:33:2-65
MERGED from [com.google.android.gms:play-services-measurement:8.3.0] C:\vinitha\Akira\sp\super-plan\superPlan\build\intermediates\exploded-aar\com.google.android.gms\play-services-measurement\8.3.0\AndroidManifest.xml:24:5-67
MERGED from [com.google.android.gms:play-services-measurement:8.3.0] C:\vinitha\Akira\sp\super-plan\superPlan\build\intermediates\exploded-aar\com.google.android.gms\play-services-measurement\8.3.0\AndroidManifest.xml:24:5-67
MERGED from [com.google.android.gms:play-services-measurement:8.3.0] C:\vinitha\Akira\sp\super-plan\superPlan\build\intermediates\exploded-aar\com.google.android.gms\play-services-measurement\8.3.0\AndroidManifest.xml:24:5-67
	android:name
		ADDED from C:\vinitha\Akira\sp\super-plan\superPlan\src\main\AndroidManifest.xml:33:19-62
uses-permission#.gcm.c2dm.permission.RECEIVE
ADDED from C:\vinitha\Akira\sp\super-plan\superPlan\src\main\AndroidManifest.xml:34:2-65
	android:name
		ADDED from C:\vinitha\Akira\sp\super-plan\superPlan\src\main\AndroidManifest.xml:34:19-62
permission#com.akira.superplan.permission.C2D_MESSAGE
ADDED from C:\vinitha\Akira\sp\super-plan\superPlan\src\main\AndroidManifest.xml:36:2-38:41
	android:protectionLevel
		ADDED from C:\vinitha\Akira\sp\super-plan\superPlan\src\main\AndroidManifest.xml:38:3-38
	android:name
		ADDED from C:\vinitha\Akira\sp\super-plan\superPlan\src\main\AndroidManifest.xml:37:3-60
uses-permission#com.akira.superplan.permission.C2D_MESSAGE
ADDED from C:\vinitha\Akira\sp\super-plan\superPlan\src\main\AndroidManifest.xml:40:2-79
	android:name
		ADDED from C:\vinitha\Akira\sp\super-plan\superPlan\src\main\AndroidManifest.xml:40:19-76
application
ADDED from C:\vinitha\Akira\sp\super-plan\superPlan\src\main\AndroidManifest.xml:42:2-135:16
MERGED from [com.google.android.gms:play-services-measurement:8.3.0] C:\vinitha\Akira\sp\super-plan\superPlan\build\intermediates\exploded-aar\com.google.android.gms\play-services-measurement\8.3.0\AndroidManifest.xml:26:5-46:19
MERGED from [com.google.android.gms:play-services-basement:8.3.0] C:\vinitha\Akira\sp\super-plan\superPlan\build\intermediates\exploded-aar\com.google.android.gms\play-services-basement\8.3.0\AndroidManifest.xml:20:5-24:19
MERGED from [com.android.support:support-v4:22.2.0] C:\vinitha\Akira\sp\super-plan\superPlan\build\intermediates\exploded-aar\com.android.support\support-v4\22.2.0\AndroidManifest.xml:22:5-20
MERGED from [com.android.support:support-v4:22.2.0] C:\vinitha\Akira\sp\super-plan\superPlan\build\intermediates\exploded-aar\com.android.support\support-v4\22.2.0\AndroidManifest.xml:22:5-20
MERGED from [com.android.support:appcompat-v7:22.2.0] C:\vinitha\Akira\sp\super-plan\superPlan\build\intermediates\exploded-aar\com.android.support\appcompat-v7\22.2.0\AndroidManifest.xml:22:5-20
MERGED from [com.android.support:support-v4:22.2.0] C:\vinitha\Akira\sp\super-plan\superPlan\build\intermediates\exploded-aar\com.android.support\support-v4\22.2.0\AndroidManifest.xml:22:5-20
MERGED from [com.astuetz:pagerslidingtabstrip:1.0.1] C:\vinitha\Akira\sp\super-plan\superPlan\build\intermediates\exploded-aar\com.astuetz\pagerslidingtabstrip\1.0.1\AndroidManifest.xml:4:5-19
MERGED from [com.android.support:support-v4:22.2.0] C:\vinitha\Akira\sp\super-plan\superPlan\build\intermediates\exploded-aar\com.android.support\support-v4\22.2.0\AndroidManifest.xml:22:5-20
MERGED from [com.google.android.gms:play-services:8.3.0] C:\vinitha\Akira\sp\super-plan\superPlan\build\intermediates\exploded-aar\com.google.android.gms\play-services\8.3.0\AndroidManifest.xml:19:5-20
MERGED from [com.google.android.gms:play-services-ads:8.3.0] C:\vinitha\Akira\sp\super-plan\superPlan\build\intermediates\exploded-aar\com.google.android.gms\play-services-ads\8.3.0\AndroidManifest.xml:24:5-32:19
MERGED from [com.google.android.gms:play-services-basement:8.3.0] C:\vinitha\Akira\sp\super-plan\superPlan\build\intermediates\exploded-aar\com.google.android.gms\play-services-basement\8.3.0\AndroidManifest.xml:20:5-24:19
MERGED from [com.android.support:support-v4:22.2.0] C:\vinitha\Akira\sp\super-plan\superPlan\build\intermediates\exploded-aar\com.android.support\support-v4\22.2.0\AndroidManifest.xml:22:5-20
MERGED from [com.google.android.gms:play-services-analytics:8.3.0] C:\vinitha\Akira\sp\super-plan\superPlan\build\intermediates\exploded-aar\com.google.android.gms\play-services-analytics\8.3.0\AndroidManifest.xml:24:5-20
MERGED from [com.google.android.gms:play-services-basement:8.3.0] C:\vinitha\Akira\sp\super-plan\superPlan\build\intermediates\exploded-aar\com.google.android.gms\play-services-basement\8.3.0\AndroidManifest.xml:20:5-24:19
MERGED from [com.android.support:support-v4:22.2.0] C:\vinitha\Akira\sp\super-plan\superPlan\build\intermediates\exploded-aar\com.android.support\support-v4\22.2.0\AndroidManifest.xml:22:5-20
MERGED from [com.google.android.gms:play-services-appindexing:8.3.0] C:\vinitha\Akira\sp\super-plan\superPlan\build\intermediates\exploded-aar\com.google.android.gms\play-services-appindexing\8.3.0\AndroidManifest.xml:19:5-20
MERGED from [com.google.android.gms:play-services-basement:8.3.0] C:\vinitha\Akira\sp\super-plan\superPlan\build\intermediates\exploded-aar\com.google.android.gms\play-services-basement\8.3.0\AndroidManifest.xml:20:5-24:19
MERGED from [com.android.support:support-v4:22.2.0] C:\vinitha\Akira\sp\super-plan\superPlan\build\intermediates\exploded-aar\com.android.support\support-v4\22.2.0\AndroidManifest.xml:22:5-20
MERGED from [com.google.android.gms:play-services-appinvite:8.3.0] C:\vinitha\Akira\sp\super-plan\superPlan\build\intermediates\exploded-aar\com.google.android.gms\play-services-appinvite\8.3.0\AndroidManifest.xml:20:5-20
MERGED from [com.google.android.gms:play-services-basement:8.3.0] C:\vinitha\Akira\sp\super-plan\superPlan\build\intermediates\exploded-aar\com.google.android.gms\play-services-basement\8.3.0\AndroidManifest.xml:20:5-24:19
MERGED from [com.android.support:support-v4:22.2.0] C:\vinitha\Akira\sp\super-plan\superPlan\build\intermediates\exploded-aar\com.android.support\support-v4\22.2.0\AndroidManifest.xml:22:5-20
MERGED from [com.google.android.gms:play-services-appstate:8.3.0] C:\vinitha\Akira\sp\super-plan\superPlan\build\intermediates\exploded-aar\com.google.android.gms\play-services-appstate\8.3.0\AndroidManifest.xml:19:5-20
MERGED from [com.google.android.gms:play-services-basement:8.3.0] C:\vinitha\Akira\sp\super-plan\superPlan\build\intermediates\exploded-aar\com.google.android.gms\play-services-basement\8.3.0\AndroidManifest.xml:20:5-24:19
MERGED from [com.android.support:support-v4:22.2.0] C:\vinitha\Akira\sp\super-plan\superPlan\build\intermediates\exploded-aar\com.android.support\support-v4\22.2.0\AndroidManifest.xml:22:5-20
MERGED from [com.google.android.gms:play-services-auth:8.3.0] C:\vinitha\Akira\sp\super-plan\superPlan\build\intermediates\exploded-aar\com.google.android.gms\play-services-auth\8.3.0\AndroidManifest.xml:20:5-25:19
MERGED from [com.google.android.gms:play-services-basement:8.3.0] C:\vinitha\Akira\sp\super-plan\superPlan\build\intermediates\exploded-aar\com.google.android.gms\play-services-basement\8.3.0\AndroidManifest.xml:20:5-24:19
MERGED from [com.android.support:support-v4:22.2.0] C:\vinitha\Akira\sp\super-plan\superPlan\build\intermediates\exploded-aar\com.android.support\support-v4\22.2.0\AndroidManifest.xml:22:5-20
MERGED from [com.google.android.gms:play-services-basement:8.3.0] C:\vinitha\Akira\sp\super-plan\superPlan\build\intermediates\exploded-aar\com.google.android.gms\play-services-basement\8.3.0\AndroidManifest.xml:20:5-24:19
MERGED from [com.android.support:support-v4:22.2.0] C:\vinitha\Akira\sp\super-plan\superPlan\build\intermediates\exploded-aar\com.android.support\support-v4\22.2.0\AndroidManifest.xml:22:5-20
MERGED from [com.google.android.gms:play-services-basement:8.3.0] C:\vinitha\Akira\sp\super-plan\superPlan\build\intermediates\exploded-aar\com.google.android.gms\play-services-basement\8.3.0\AndroidManifest.xml:20:5-24:19
MERGED from [com.android.support:support-v4:22.2.0] C:\vinitha\Akira\sp\super-plan\superPlan\build\intermediates\exploded-aar\com.android.support\support-v4\22.2.0\AndroidManifest.xml:22:5-20
MERGED from [com.google.android.gms:play-services-cast:8.3.0] C:\vinitha\Akira\sp\super-plan\superPlan\build\intermediates\exploded-aar\com.google.android.gms\play-services-cast\8.3.0\AndroidManifest.xml:19:5-20
MERGED from [com.google.android.gms:play-services-basement:8.3.0] C:\vinitha\Akira\sp\super-plan\superPlan\build\intermediates\exploded-aar\com.google.android.gms\play-services-basement\8.3.0\AndroidManifest.xml:20:5-24:19
MERGED from [com.android.support:support-v4:22.2.0] C:\vinitha\Akira\sp\super-plan\superPlan\build\intermediates\exploded-aar\com.android.support\support-v4\22.2.0\AndroidManifest.xml:22:5-20
MERGED from [com.android.support:mediarouter-v7:22.2.0] C:\vinitha\Akira\sp\super-plan\superPlan\build\intermediates\exploded-aar\com.android.support\mediarouter-v7\22.2.0\AndroidManifest.xml:22:5-20
MERGED from [com.android.support:appcompat-v7:22.2.0] C:\vinitha\Akira\sp\super-plan\superPlan\build\intermediates\exploded-aar\com.android.support\appcompat-v7\22.2.0\AndroidManifest.xml:22:5-20
MERGED from [com.android.support:support-v4:22.2.0] C:\vinitha\Akira\sp\super-plan\superPlan\build\intermediates\exploded-aar\com.android.support\support-v4\22.2.0\AndroidManifest.xml:22:5-20
MERGED from [com.google.android.gms:play-services-drive:8.3.0] C:\vinitha\Akira\sp\super-plan\superPlan\build\intermediates\exploded-aar\com.google.android.gms\play-services-drive\8.3.0\AndroidManifest.xml:19:5-20
MERGED from [com.google.android.gms:play-services-basement:8.3.0] C:\vinitha\Akira\sp\super-plan\superPlan\build\intermediates\exploded-aar\com.google.android.gms\play-services-basement\8.3.0\AndroidManifest.xml:20:5-24:19
MERGED from [com.android.support:support-v4:22.2.0] C:\vinitha\Akira\sp\super-plan\superPlan\build\intermediates\exploded-aar\com.android.support\support-v4\22.2.0\AndroidManifest.xml:22:5-20
MERGED from [com.google.android.gms:play-services-fitness:8.3.0] C:\vinitha\Akira\sp\super-plan\superPlan\build\intermediates\exploded-aar\com.google.android.gms\play-services-fitness\8.3.0\AndroidManifest.xml:19:5-20
MERGED from [com.google.android.gms:play-services-basement:8.3.0] C:\vinitha\Akira\sp\super-plan\superPlan\build\intermediates\exploded-aar\com.google.android.gms\play-services-basement\8.3.0\AndroidManifest.xml:20:5-24:19
MERGED from [com.android.support:support-v4:22.2.0] C:\vinitha\Akira\sp\super-plan\superPlan\build\intermediates\exploded-aar\com.android.support\support-v4\22.2.0\AndroidManifest.xml:22:5-20
MERGED from [com.google.android.gms:play-services-location:8.3.0] C:\vinitha\Akira\sp\super-plan\superPlan\build\intermediates\exploded-aar\com.google.android.gms\play-services-location\8.3.0\AndroidManifest.xml:19:5-20
MERGED from [com.google.android.gms:play-services-basement:8.3.0] C:\vinitha\Akira\sp\super-plan\superPlan\build\intermediates\exploded-aar\com.google.android.gms\play-services-basement\8.3.0\AndroidManifest.xml:20:5-24:19
MERGED from [com.android.support:support-v4:22.2.0] C:\vinitha\Akira\sp\super-plan\superPlan\build\intermediates\exploded-aar\com.android.support\support-v4\22.2.0\AndroidManifest.xml:22:5-20
MERGED from [com.google.android.gms:play-services-maps:8.3.0] C:\vinitha\Akira\sp\super-plan\superPlan\build\intermediates\exploded-aar\com.google.android.gms\play-services-maps\8.3.0\AndroidManifest.xml:27:5-20
MERGED from [com.google.android.gms:play-services-basement:8.3.0] C:\vinitha\Akira\sp\super-plan\superPlan\build\intermediates\exploded-aar\com.google.android.gms\play-services-basement\8.3.0\AndroidManifest.xml:20:5-24:19
MERGED from [com.android.support:support-v4:22.2.0] C:\vinitha\Akira\sp\super-plan\superPlan\build\intermediates\exploded-aar\com.android.support\support-v4\22.2.0\AndroidManifest.xml:22:5-20
MERGED from [com.google.android.gms:play-services-games:8.3.0] C:\vinitha\Akira\sp\super-plan\superPlan\build\intermediates\exploded-aar\com.google.android.gms\play-services-games\8.3.0\AndroidManifest.xml:19:5-20
MERGED from [com.google.android.gms:play-services-basement:8.3.0] C:\vinitha\Akira\sp\super-plan\superPlan\build\intermediates\exploded-aar\com.google.android.gms\play-services-basement\8.3.0\AndroidManifest.xml:20:5-24:19
MERGED from [com.android.support:support-v4:22.2.0] C:\vinitha\Akira\sp\super-plan\superPlan\build\intermediates\exploded-aar\com.android.support\support-v4\22.2.0\AndroidManifest.xml:22:5-20
MERGED from [com.google.android.gms:play-services-drive:8.3.0] C:\vinitha\Akira\sp\super-plan\superPlan\build\intermediates\exploded-aar\com.google.android.gms\play-services-drive\8.3.0\AndroidManifest.xml:19:5-20
MERGED from [com.google.android.gms:play-services-basement:8.3.0] C:\vinitha\Akira\sp\super-plan\superPlan\build\intermediates\exploded-aar\com.google.android.gms\play-services-basement\8.3.0\AndroidManifest.xml:20:5-24:19
MERGED from [com.android.support:support-v4:22.2.0] C:\vinitha\Akira\sp\super-plan\superPlan\build\intermediates\exploded-aar\com.android.support\support-v4\22.2.0\AndroidManifest.xml:22:5-20
MERGED from [com.google.android.gms:play-services-gcm:8.3.0] C:\vinitha\Akira\sp\super-plan\superPlan\build\intermediates\exploded-aar\com.google.android.gms\play-services-gcm\8.3.0\AndroidManifest.xml:24:5-20
MERGED from [com.google.android.gms:play-services-basement:8.3.0] C:\vinitha\Akira\sp\super-plan\superPlan\build\intermediates\exploded-aar\com.google.android.gms\play-services-basement\8.3.0\AndroidManifest.xml:20:5-24:19
MERGED from [com.android.support:support-v4:22.2.0] C:\vinitha\Akira\sp\super-plan\superPlan\build\intermediates\exploded-aar\com.android.support\support-v4\22.2.0\AndroidManifest.xml:22:5-20
MERGED from [com.google.android.gms:play-services-measurement:8.3.0] C:\vinitha\Akira\sp\super-plan\superPlan\build\intermediates\exploded-aar\com.google.android.gms\play-services-measurement\8.3.0\AndroidManifest.xml:26:5-46:19
MERGED from [com.google.android.gms:play-services-basement:8.3.0] C:\vinitha\Akira\sp\super-plan\superPlan\build\intermediates\exploded-aar\com.google.android.gms\play-services-basement\8.3.0\AndroidManifest.xml:20:5-24:19
MERGED from [com.android.support:support-v4:22.2.0] C:\vinitha\Akira\sp\super-plan\superPlan\build\intermediates\exploded-aar\com.android.support\support-v4\22.2.0\AndroidManifest.xml:22:5-20
MERGED from [com.google.android.gms:play-services-identity:8.3.0] C:\vinitha\Akira\sp\super-plan\superPlan\build\intermediates\exploded-aar\com.google.android.gms\play-services-identity\8.3.0\AndroidManifest.xml:19:5-20
MERGED from [com.google.android.gms:play-services-basement:8.3.0] C:\vinitha\Akira\sp\super-plan\superPlan\build\intermediates\exploded-aar\com.google.android.gms\play-services-basement\8.3.0\AndroidManifest.xml:20:5-24:19
MERGED from [com.android.support:support-v4:22.2.0] C:\vinitha\Akira\sp\super-plan\superPlan\build\intermediates\exploded-aar\com.android.support\support-v4\22.2.0\AndroidManifest.xml:22:5-20
MERGED from [com.google.android.gms:play-services-location:8.3.0] C:\vinitha\Akira\sp\super-plan\superPlan\build\intermediates\exploded-aar\com.google.android.gms\play-services-location\8.3.0\AndroidManifest.xml:19:5-20
MERGED from [com.google.android.gms:play-services-basement:8.3.0] C:\vinitha\Akira\sp\super-plan\superPlan\build\intermediates\exploded-aar\com.google.android.gms\play-services-basement\8.3.0\AndroidManifest.xml:20:5-24:19
MERGED from [com.android.support:support-v4:22.2.0] C:\vinitha\Akira\sp\super-plan\superPlan\build\intermediates\exploded-aar\com.android.support\support-v4\22.2.0\AndroidManifest.xml:22:5-20
MERGED from [com.google.android.gms:play-services-maps:8.3.0] C:\vinitha\Akira\sp\super-plan\superPlan\build\intermediates\exploded-aar\com.google.android.gms\play-services-maps\8.3.0\AndroidManifest.xml:27:5-20
MERGED from [com.google.android.gms:play-services-basement:8.3.0] C:\vinitha\Akira\sp\super-plan\superPlan\build\intermediates\exploded-aar\com.google.android.gms\play-services-basement\8.3.0\AndroidManifest.xml:20:5-24:19
MERGED from [com.android.support:support-v4:22.2.0] C:\vinitha\Akira\sp\super-plan\superPlan\build\intermediates\exploded-aar\com.android.support\support-v4\22.2.0\AndroidManifest.xml:22:5-20
MERGED from [com.google.android.gms:play-services-maps:8.3.0] C:\vinitha\Akira\sp\super-plan\superPlan\build\intermediates\exploded-aar\com.google.android.gms\play-services-maps\8.3.0\AndroidManifest.xml:27:5-20
MERGED from [com.google.android.gms:play-services-basement:8.3.0] C:\vinitha\Akira\sp\super-plan\superPlan\build\intermediates\exploded-aar\com.google.android.gms\play-services-basement\8.3.0\AndroidManifest.xml:20:5-24:19
MERGED from [com.android.support:support-v4:22.2.0] C:\vinitha\Akira\sp\super-plan\superPlan\build\intermediates\exploded-aar\com.android.support\support-v4\22.2.0\AndroidManifest.xml:22:5-20
MERGED from [com.google.android.gms:play-services-measurement:8.3.0] C:\vinitha\Akira\sp\super-plan\superPlan\build\intermediates\exploded-aar\com.google.android.gms\play-services-measurement\8.3.0\AndroidManifest.xml:26:5-46:19
MERGED from [com.google.android.gms:play-services-basement:8.3.0] C:\vinitha\Akira\sp\super-plan\superPlan\build\intermediates\exploded-aar\com.google.android.gms\play-services-basement\8.3.0\AndroidManifest.xml:20:5-24:19
MERGED from [com.android.support:support-v4:22.2.0] C:\vinitha\Akira\sp\super-plan\superPlan\build\intermediates\exploded-aar\com.android.support\support-v4\22.2.0\AndroidManifest.xml:22:5-20
MERGED from [com.google.android.gms:play-services-nearby:8.3.0] C:\vinitha\Akira\sp\super-plan\superPlan\build\intermediates\exploded-aar\com.google.android.gms\play-services-nearby\8.3.0\AndroidManifest.xml:20:5-20
MERGED from [com.google.android.gms:play-services-basement:8.3.0] C:\vinitha\Akira\sp\super-plan\superPlan\build\intermediates\exploded-aar\com.google.android.gms\play-services-basement\8.3.0\AndroidManifest.xml:20:5-24:19
MERGED from [com.android.support:support-v4:22.2.0] C:\vinitha\Akira\sp\super-plan\superPlan\build\intermediates\exploded-aar\com.android.support\support-v4\22.2.0\AndroidManifest.xml:22:5-20
MERGED from [com.google.android.gms:play-services-panorama:8.3.0] C:\vinitha\Akira\sp\super-plan\superPlan\build\intermediates\exploded-aar\com.google.android.gms\play-services-panorama\8.3.0\AndroidManifest.xml:19:5-20
MERGED from [com.google.android.gms:play-services-basement:8.3.0] C:\vinitha\Akira\sp\super-plan\superPlan\build\intermediates\exploded-aar\com.google.android.gms\play-services-basement\8.3.0\AndroidManifest.xml:20:5-24:19
MERGED from [com.android.support:support-v4:22.2.0] C:\vinitha\Akira\sp\super-plan\superPlan\build\intermediates\exploded-aar\com.android.support\support-v4\22.2.0\AndroidManifest.xml:22:5-20
MERGED from [com.google.android.gms:play-services-plus:8.3.0] C:\vinitha\Akira\sp\super-plan\superPlan\build\intermediates\exploded-aar\com.google.android.gms\play-services-plus\8.3.0\AndroidManifest.xml:19:5-20
MERGED from [com.google.android.gms:play-services-basement:8.3.0] C:\vinitha\Akira\sp\super-plan\superPlan\build\intermediates\exploded-aar\com.google.android.gms\play-services-basement\8.3.0\AndroidManifest.xml:20:5-24:19
MERGED from [com.android.support:support-v4:22.2.0] C:\vinitha\Akira\sp\super-plan\superPlan\build\intermediates\exploded-aar\com.android.support\support-v4\22.2.0\AndroidManifest.xml:22:5-20
MERGED from [com.google.android.gms:play-services-safetynet:8.3.0] C:\vinitha\Akira\sp\super-plan\superPlan\build\intermediates\exploded-aar\com.google.android.gms\play-services-safetynet\8.3.0\AndroidManifest.xml:19:5-20
MERGED from [com.google.android.gms:play-services-basement:8.3.0] C:\vinitha\Akira\sp\super-plan\superPlan\build\intermediates\exploded-aar\com.google.android.gms\play-services-basement\8.3.0\AndroidManifest.xml:20:5-24:19
MERGED from [com.android.support:support-v4:22.2.0] C:\vinitha\Akira\sp\super-plan\superPlan\build\intermediates\exploded-aar\com.android.support\support-v4\22.2.0\AndroidManifest.xml:22:5-20
MERGED from [com.google.android.gms:play-services-vision:8.3.0] C:\vinitha\Akira\sp\super-plan\superPlan\build\intermediates\exploded-aar\com.google.android.gms\play-services-vision\8.3.0\AndroidManifest.xml:5:5-20
MERGED from [com.google.android.gms:play-services-basement:8.3.0] C:\vinitha\Akira\sp\super-plan\superPlan\build\intermediates\exploded-aar\com.google.android.gms\play-services-basement\8.3.0\AndroidManifest.xml:20:5-24:19
MERGED from [com.android.support:support-v4:22.2.0] C:\vinitha\Akira\sp\super-plan\superPlan\build\intermediates\exploded-aar\com.android.support\support-v4\22.2.0\AndroidManifest.xml:22:5-20
MERGED from [com.google.android.gms:play-services-basement:8.3.0] C:\vinitha\Akira\sp\super-plan\superPlan\build\intermediates\exploded-aar\com.google.android.gms\play-services-basement\8.3.0\AndroidManifest.xml:20:5-24:19
MERGED from [com.android.support:support-v4:22.2.0] C:\vinitha\Akira\sp\super-plan\superPlan\build\intermediates\exploded-aar\com.android.support\support-v4\22.2.0\AndroidManifest.xml:22:5-20
MERGED from [com.google.android.gms:play-services-identity:8.3.0] C:\vinitha\Akira\sp\super-plan\superPlan\build\intermediates\exploded-aar\com.google.android.gms\play-services-identity\8.3.0\AndroidManifest.xml:19:5-20
MERGED from [com.google.android.gms:play-services-basement:8.3.0] C:\vinitha\Akira\sp\super-plan\superPlan\build\intermediates\exploded-aar\com.google.android.gms\play-services-basement\8.3.0\AndroidManifest.xml:20:5-24:19
MERGED from [com.android.support:support-v4:22.2.0] C:\vinitha\Akira\sp\super-plan\superPlan\build\intermediates\exploded-aar\com.android.support\support-v4\22.2.0\AndroidManifest.xml:22:5-20
MERGED from [com.google.android.gms:play-services-maps:8.3.0] C:\vinitha\Akira\sp\super-plan\superPlan\build\intermediates\exploded-aar\com.google.android.gms\play-services-maps\8.3.0\AndroidManifest.xml:27:5-20
MERGED from [com.google.android.gms:play-services-basement:8.3.0] C:\vinitha\Akira\sp\super-plan\superPlan\build\intermediates\exploded-aar\com.google.android.gms\play-services-basement\8.3.0\AndroidManifest.xml:20:5-24:19
MERGED from [com.android.support:support-v4:22.2.0] C:\vinitha\Akira\sp\super-plan\superPlan\build\intermediates\exploded-aar\com.android.support\support-v4\22.2.0\AndroidManifest.xml:22:5-20
MERGED from [com.google.android.gms:play-services-wearable:8.3.0] C:\vinitha\Akira\sp\super-plan\superPlan\build\intermediates\exploded-aar\com.google.android.gms\play-services-wearable\8.3.0\AndroidManifest.xml:19:5-20
MERGED from [com.google.android.gms:play-services-basement:8.3.0] C:\vinitha\Akira\sp\super-plan\superPlan\build\intermediates\exploded-aar\com.google.android.gms\play-services-basement\8.3.0\AndroidManifest.xml:20:5-24:19
MERGED from [com.android.support:support-v4:22.2.0] C:\vinitha\Akira\sp\super-plan\superPlan\build\intermediates\exploded-aar\com.android.support\support-v4\22.2.0\AndroidManifest.xml:22:5-20
	android:label
		ADDED from C:\vinitha\Akira\sp\super-plan\superPlan\src\main\AndroidManifest.xml:46:3-35
	android:allowBackup
		ADDED from C:\vinitha\Akira\sp\super-plan\superPlan\src\main\AndroidManifest.xml:44:3-29
	android:icon
		ADDED from C:\vinitha\Akira\sp\super-plan\superPlan\src\main\AndroidManifest.xml:45:3-32
	android:theme
		ADDED from C:\vinitha\Akira\sp\super-plan\superPlan\src\main\AndroidManifest.xml:47:3-34
	android:name
		ADDED from C:\vinitha\Akira\sp\super-plan\superPlan\src\main\AndroidManifest.xml:43:9-43
activity#com.akira.superplan.SplashScreenActivity
ADDED from C:\vinitha\Akira\sp\super-plan\superPlan\src\main\AndroidManifest.xml:48:3-57:14
	android:screenOrientation
		ADDED from C:\vinitha\Akira\sp\super-plan\superPlan\src\main\AndroidManifest.xml:51:4-40
	android:label
		ADDED from C:\vinitha\Akira\sp\super-plan\superPlan\src\main\AndroidManifest.xml:50:4-36
	android:name
		ADDED from C:\vinitha\Akira\sp\super-plan\superPlan\src\main\AndroidManifest.xml:49:4-40
intent-filter#android.intent.action.MAIN+android.intent.category.LAUNCHER
ADDED from C:\vinitha\Akira\sp\super-plan\superPlan\src\main\AndroidManifest.xml:52:4-56:20
action#android.intent.action.MAIN
ADDED from C:\vinitha\Akira\sp\super-plan\superPlan\src\main\AndroidManifest.xml:53:5-57
	android:name
		ADDED from C:\vinitha\Akira\sp\super-plan\superPlan\src\main\AndroidManifest.xml:53:13-54
category#android.intent.category.LAUNCHER
ADDED from C:\vinitha\Akira\sp\super-plan\superPlan\src\main\AndroidManifest.xml:55:5-65
	android:name
		ADDED from C:\vinitha\Akira\sp\super-plan\superPlan\src\main\AndroidManifest.xml:55:15-62
activity#com.akira.superplan.MainFragmentActivity
ADDED from C:\vinitha\Akira\sp\super-plan\superPlan\src\main\AndroidManifest.xml:58:3-63:46
	android:windowSoftInputMode
		ADDED from C:\vinitha\Akira\sp\super-plan\superPlan\src\main\AndroidManifest.xml:63:4-43
	android:screenOrientation
		ADDED from C:\vinitha\Akira\sp\super-plan\superPlan\src\main\AndroidManifest.xml:61:4-40
	android:configChanges
		ADDED from C:\vinitha\Akira\sp\super-plan\superPlan\src\main\AndroidManifest.xml:60:4-63
	android:theme
		ADDED from C:\vinitha\Akira\sp\super-plan\superPlan\src\main\AndroidManifest.xml:62:4-35
	android:name
		ADDED from C:\vinitha\Akira\sp\super-plan\superPlan\src\main\AndroidManifest.xml:59:4-40
activity#com.akira.superplan.fragments.StatusAct
ADDED from C:\vinitha\Akira\sp\super-plan\superPlan\src\main\AndroidManifest.xml:64:9-69:55
	android:windowSoftInputMode
		ADDED from C:\vinitha\Akira\sp\super-plan\superPlan\src\main\AndroidManifest.xml:69:13-52
	android:screenOrientation
		ADDED from C:\vinitha\Akira\sp\super-plan\superPlan\src\main\AndroidManifest.xml:67:13-49
	android:configChanges
		ADDED from C:\vinitha\Akira\sp\super-plan\superPlan\src\main\AndroidManifest.xml:66:13-72
	android:theme
		ADDED from C:\vinitha\Akira\sp\super-plan\superPlan\src\main\AndroidManifest.xml:68:13-44
	android:name
		ADDED from C:\vinitha\Akira\sp\super-plan\superPlan\src\main\AndroidManifest.xml:65:13-48
activity#com.akira.superplan.SigninFragmentActivity
ADDED from C:\vinitha\Akira\sp\super-plan\superPlan\src\main\AndroidManifest.xml:70:3-75:46
	android:windowSoftInputMode
		ADDED from C:\vinitha\Akira\sp\super-plan\superPlan\src\main\AndroidManifest.xml:75:4-43
	android:screenOrientation
		ADDED from C:\vinitha\Akira\sp\super-plan\superPlan\src\main\AndroidManifest.xml:73:4-40
	android:configChanges
		ADDED from C:\vinitha\Akira\sp\super-plan\superPlan\src\main\AndroidManifest.xml:72:4-63
	android:theme
		ADDED from C:\vinitha\Akira\sp\super-plan\superPlan\src\main\AndroidManifest.xml:74:4-35
	android:name
		ADDED from C:\vinitha\Akira\sp\super-plan\superPlan\src\main\AndroidManifest.xml:71:4-42
activity#com.akira.superplan.fragments.SummaryActivity
ADDED from C:\vinitha\Akira\sp\super-plan\superPlan\src\main\AndroidManifest.xml:76:3-81:46
	android:windowSoftInputMode
		ADDED from C:\vinitha\Akira\sp\super-plan\superPlan\src\main\AndroidManifest.xml:81:4-43
	android:screenOrientation
		ADDED from C:\vinitha\Akira\sp\super-plan\superPlan\src\main\AndroidManifest.xml:79:4-40
	android:configChanges
		ADDED from C:\vinitha\Akira\sp\super-plan\superPlan\src\main\AndroidManifest.xml:78:4-63
	android:theme
		ADDED from C:\vinitha\Akira\sp\super-plan\superPlan\src\main\AndroidManifest.xml:80:4-35
	android:name
		ADDED from C:\vinitha\Akira\sp\super-plan\superPlan\src\main\AndroidManifest.xml:77:4-45
activity#com.akira.superplan.fragments.sampleHistoryview
ADDED from C:\vinitha\Akira\sp\super-plan\superPlan\src\main\AndroidManifest.xml:82:9-87:55
	android:windowSoftInputMode
		ADDED from C:\vinitha\Akira\sp\super-plan\superPlan\src\main\AndroidManifest.xml:87:13-52
	android:screenOrientation
		ADDED from C:\vinitha\Akira\sp\super-plan\superPlan\src\main\AndroidManifest.xml:85:13-49
	android:configChanges
		ADDED from C:\vinitha\Akira\sp\super-plan\superPlan\src\main\AndroidManifest.xml:84:13-72
	android:theme
		ADDED from C:\vinitha\Akira\sp\super-plan\superPlan\src\main\AndroidManifest.xml:86:13-44
	android:name
		ADDED from C:\vinitha\Akira\sp\super-plan\superPlan\src\main\AndroidManifest.xml:83:13-56
receiver#com.akira.superplan.receivers.ConnectivityChangeReceiver
ADDED from C:\vinitha\Akira\sp\super-plan\superPlan\src\main\AndroidManifest.xml:88:3-92:14
	android:name
		ADDED from C:\vinitha\Akira\sp\super-plan\superPlan\src\main\AndroidManifest.xml:88:13-65
intent-filter#android.net.conn.CONNECTIVITY_CHANGE
ADDED from C:\vinitha\Akira\sp\super-plan\superPlan\src\main\AndroidManifest.xml:89:4-91:20
action#android.net.conn.CONNECTIVITY_CHANGE
ADDED from C:\vinitha\Akira\sp\super-plan\superPlan\src\main\AndroidManifest.xml:90:5-67
	android:name
		ADDED from C:\vinitha\Akira\sp\super-plan\superPlan\src\main\AndroidManifest.xml:90:13-64
receiver#com.akira.superplan.calls.CallReceiver
ADDED from C:\vinitha\Akira\sp\super-plan\superPlan\src\main\AndroidManifest.xml:93:3-100:14
	android:name
		ADDED from C:\vinitha\Akira\sp\super-plan\superPlan\src\main\AndroidManifest.xml:93:13-47
intent-filter#android.intent.action.PHONE_STATE
ADDED from C:\vinitha\Akira\sp\super-plan\superPlan\src\main\AndroidManifest.xml:94:4-96:20
action#android.intent.action.PHONE_STATE
ADDED from C:\vinitha\Akira\sp\super-plan\superPlan\src\main\AndroidManifest.xml:95:5-64
	android:name
		ADDED from C:\vinitha\Akira\sp\super-plan\superPlan\src\main\AndroidManifest.xml:95:13-61
intent-filter#android.intent.action.NEW_OUTGOING_CALL
ADDED from C:\vinitha\Akira\sp\super-plan\superPlan\src\main\AndroidManifest.xml:97:4-99:20
action#android.intent.action.NEW_OUTGOING_CALL
ADDED from C:\vinitha\Akira\sp\super-plan\superPlan\src\main\AndroidManifest.xml:98:5-70
	android:name
		ADDED from C:\vinitha\Akira\sp\super-plan\superPlan\src\main\AndroidManifest.xml:98:13-67
receiver#com.akira.superplan.receivers.BootCompletedReceiver
ADDED from C:\vinitha\Akira\sp\super-plan\superPlan\src\main\AndroidManifest.xml:101:9-109:20
	android:exported
		ADDED from C:\vinitha\Akira\sp\super-plan\superPlan\src\main\AndroidManifest.xml:104:13-37
	android:enabled
		ADDED from C:\vinitha\Akira\sp\super-plan\superPlan\src\main\AndroidManifest.xml:103:13-35
	android:name
		ADDED from C:\vinitha\Akira\sp\super-plan\superPlan\src\main\AndroidManifest.xml:102:13-60
intent-filter#android.intent.action.BOOT_COMPLETED+android.intent.action.QUICKBOOT_POWERON
ADDED from C:\vinitha\Akira\sp\super-plan\superPlan\src\main\AndroidManifest.xml:105:13-108:29
action#android.intent.action.BOOT_COMPLETED
ADDED from C:\vinitha\Akira\sp\super-plan\superPlan\src\main\AndroidManifest.xml:106:17-79
	android:name
		ADDED from C:\vinitha\Akira\sp\super-plan\superPlan\src\main\AndroidManifest.xml:106:25-76
action#android.intent.action.QUICKBOOT_POWERON
ADDED from C:\vinitha\Akira\sp\super-plan\superPlan\src\main\AndroidManifest.xml:107:17-82
	android:name
		ADDED from C:\vinitha\Akira\sp\super-plan\superPlan\src\main\AndroidManifest.xml:107:25-79
receiver#com.akira.superplan.receivers.ShutdownReceiver
ADDED from C:\vinitha\Akira\sp\super-plan\superPlan\src\main\AndroidManifest.xml:110:9-115:20
	android:name
		ADDED from C:\vinitha\Akira\sp\super-plan\superPlan\src\main\AndroidManifest.xml:110:19-61
intent-filter#android.intent.action.ACTION_SHUTDOWN+android.intent.action.QUICKBOOT_POWEROFF
ADDED from C:\vinitha\Akira\sp\super-plan\superPlan\src\main\AndroidManifest.xml:111:13-114:29
action#android.intent.action.ACTION_SHUTDOWN
ADDED from C:\vinitha\Akira\sp\super-plan\superPlan\src\main\AndroidManifest.xml:112:17-80
	android:name
		ADDED from C:\vinitha\Akira\sp\super-plan\superPlan\src\main\AndroidManifest.xml:112:25-77
action#android.intent.action.QUICKBOOT_POWEROFF
ADDED from C:\vinitha\Akira\sp\super-plan\superPlan\src\main\AndroidManifest.xml:113:17-83
	android:name
		ADDED from C:\vinitha\Akira\sp\super-plan\superPlan\src\main\AndroidManifest.xml:113:25-80
service#com.akira.superplan.services.SendLogsService
ADDED from C:\vinitha\Akira\sp\super-plan\superPlan\src\main\AndroidManifest.xml:116:3-119:13
	android:exported
		ADDED from C:\vinitha\Akira\sp\super-plan\superPlan\src\main\AndroidManifest.xml:118:4-28
	android:name
		ADDED from C:\vinitha\Akira\sp\super-plan\superPlan\src\main\AndroidManifest.xml:117:4-44
service#com.akira.superplan.services.ContentObserverService
ADDED from C:\vinitha\Akira\sp\super-plan\superPlan\src\main\AndroidManifest.xml:120:3-121:13
	android:name
		ADDED from C:\vinitha\Akira\sp\super-plan\superPlan\src\main\AndroidManifest.xml:120:12-59
service#com.akira.superplan.services.LogDataUsageService
ADDED from C:\vinitha\Akira\sp\super-plan\superPlan\src\main\AndroidManifest.xml:122:3-123:13
	android:name
		ADDED from C:\vinitha\Akira\sp\super-plan\superPlan\src\main\AndroidManifest.xml:122:12-56
service#com.akira.superplan.services.NotificationAccessibilityService
ADDED from C:\vinitha\Akira\sp\super-plan\superPlan\src\main\AndroidManifest.xml:124:3-133:13
	android:label
		ADDED from C:\vinitha\Akira\sp\super-plan\superPlan\src\main\AndroidManifest.xml:128:4-36
	android:exported
		ADDED from C:\vinitha\Akira\sp\super-plan\superPlan\src\main\AndroidManifest.xml:127:4-28
	android:enabled
		ADDED from C:\vinitha\Akira\sp\super-plan\superPlan\src\main\AndroidManifest.xml:126:4-26
	android:permission
		ADDED from C:\vinitha\Akira\sp\super-plan\superPlan\src\main\AndroidManifest.xml:129:4-70
	android:name
		ADDED from C:\vinitha\Akira\sp\super-plan\superPlan\src\main\AndroidManifest.xml:125:4-61
intent-filter#android.accessibilityservice.AccessibilityService
ADDED from C:\vinitha\Akira\sp\super-plan\superPlan\src\main\AndroidManifest.xml:130:4-132:20
action#android.accessibilityservice.AccessibilityService
ADDED from C:\vinitha\Akira\sp\super-plan\superPlan\src\main\AndroidManifest.xml:131:5-80
	android:name
		ADDED from C:\vinitha\Akira\sp\super-plan\superPlan\src\main\AndroidManifest.xml:131:13-77
provider#com.google.android.gms.measurement.AppMeasurementContentProvider
ADDED from [com.google.android.gms:play-services-measurement:8.3.0] C:\vinitha\Akira\sp\super-plan\superPlan\build\intermediates\exploded-aar\com.google.android.gms\play-services-measurement\8.3.0\AndroidManifest.xml:28:7-31:37
MERGED from [com.google.android.gms:play-services-measurement:8.3.0] C:\vinitha\Akira\sp\super-plan\superPlan\build\intermediates\exploded-aar\com.google.android.gms\play-services-measurement\8.3.0\AndroidManifest.xml:28:7-31:37
MERGED from [com.google.android.gms:play-services-measurement:8.3.0] C:\vinitha\Akira\sp\super-plan\superPlan\build\intermediates\exploded-aar\com.google.android.gms\play-services-measurement\8.3.0\AndroidManifest.xml:28:7-31:37
	android:exported
		ADDED from [com.google.android.gms:play-services-measurement:8.3.0] C:\vinitha\Akira\sp\super-plan\superPlan\build\intermediates\exploded-aar\com.google.android.gms\play-services-measurement\8.3.0\AndroidManifest.xml:31:11-35
	android:authorities
		ADDED from [com.google.android.gms:play-services-measurement:8.3.0] C:\vinitha\Akira\sp\super-plan\superPlan\build\intermediates\exploded-aar\com.google.android.gms\play-services-measurement\8.3.0\AndroidManifest.xml:29:11-76
	android:name
		ADDED from [com.google.android.gms:play-services-measurement:8.3.0] C:\vinitha\Akira\sp\super-plan\superPlan\build\intermediates\exploded-aar\com.google.android.gms\play-services-measurement\8.3.0\AndroidManifest.xml:30:11-90
receiver#com.google.android.gms.measurement.AppMeasurementReceiver
ADDED from [com.google.android.gms:play-services-measurement:8.3.0] C:\vinitha\Akira\sp\super-plan\superPlan\build\intermediates\exploded-aar\com.google.android.gms\play-services-measurement\8.3.0\AndroidManifest.xml:33:7-39:18
MERGED from [com.google.android.gms:play-services-measurement:8.3.0] C:\vinitha\Akira\sp\super-plan\superPlan\build\intermediates\exploded-aar\com.google.android.gms\play-services-measurement\8.3.0\AndroidManifest.xml:33:7-39:18
MERGED from [com.google.android.gms:play-services-measurement:8.3.0] C:\vinitha\Akira\sp\super-plan\superPlan\build\intermediates\exploded-aar\com.google.android.gms\play-services-measurement\8.3.0\AndroidManifest.xml:33:7-39:18
	android:enabled
		ADDED from [com.google.android.gms:play-services-measurement:8.3.0] C:\vinitha\Akira\sp\super-plan\superPlan\build\intermediates\exploded-aar\com.google.android.gms\play-services-measurement\8.3.0\AndroidManifest.xml:35:11-33
	android:name
		ADDED from [com.google.android.gms:play-services-measurement:8.3.0] C:\vinitha\Akira\sp\super-plan\superPlan\build\intermediates\exploded-aar\com.google.android.gms\play-services-measurement\8.3.0\AndroidManifest.xml:34:11-83
intent-filter#com.google.android.gms.measurement.UPLOAD
ADDED from [com.google.android.gms:play-services-measurement:8.3.0] C:\vinitha\Akira\sp\super-plan\superPlan\build\intermediates\exploded-aar\com.google.android.gms\play-services-measurement\8.3.0\AndroidManifest.xml:36:9-38:25
action#com.google.android.gms.measurement.UPLOAD
ADDED from [com.google.android.gms:play-services-measurement:8.3.0] C:\vinitha\Akira\sp\super-plan\superPlan\build\intermediates\exploded-aar\com.google.android.gms\play-services-measurement\8.3.0\AndroidManifest.xml:37:11-77
	android:name
		ADDED from [com.google.android.gms:play-services-measurement:8.3.0] C:\vinitha\Akira\sp\super-plan\superPlan\build\intermediates\exploded-aar\com.google.android.gms\play-services-measurement\8.3.0\AndroidManifest.xml:37:19-75
service#com.google.android.gms.measurement.AppMeasurementService
ADDED from [com.google.android.gms:play-services-measurement:8.3.0] C:\vinitha\Akira\sp\super-plan\superPlan\build\intermediates\exploded-aar\com.google.android.gms\play-services-measurement\8.3.0\AndroidManifest.xml:41:7-44:37
MERGED from [com.google.android.gms:play-services-measurement:8.3.0] C:\vinitha\Akira\sp\super-plan\superPlan\build\intermediates\exploded-aar\com.google.android.gms\play-services-measurement\8.3.0\AndroidManifest.xml:41:7-44:37
MERGED from [com.google.android.gms:play-services-measurement:8.3.0] C:\vinitha\Akira\sp\super-plan\superPlan\build\intermediates\exploded-aar\com.google.android.gms\play-services-measurement\8.3.0\AndroidManifest.xml:41:7-44:37
	android:exported
		ADDED from [com.google.android.gms:play-services-measurement:8.3.0] C:\vinitha\Akira\sp\super-plan\superPlan\build\intermediates\exploded-aar\com.google.android.gms\play-services-measurement\8.3.0\AndroidManifest.xml:44:11-35
	android:enabled
		ADDED from [com.google.android.gms:play-services-measurement:8.3.0] C:\vinitha\Akira\sp\super-plan\superPlan\build\intermediates\exploded-aar\com.google.android.gms\play-services-measurement\8.3.0\AndroidManifest.xml:43:11-33
	android:name
		ADDED from [com.google.android.gms:play-services-measurement:8.3.0] C:\vinitha\Akira\sp\super-plan\superPlan\build\intermediates\exploded-aar\com.google.android.gms\play-services-measurement\8.3.0\AndroidManifest.xml:42:11-82
meta-data#com.google.android.gms.version
ADDED from [com.google.android.gms:play-services-basement:8.3.0] C:\vinitha\Akira\sp\super-plan\superPlan\build\intermediates\exploded-aar\com.google.android.gms\play-services-basement\8.3.0\AndroidManifest.xml:21:9-23:69
MERGED from [com.google.android.gms:play-services-basement:8.3.0] C:\vinitha\Akira\sp\super-plan\superPlan\build\intermediates\exploded-aar\com.google.android.gms\play-services-basement\8.3.0\AndroidManifest.xml:21:9-23:69
MERGED from [com.google.android.gms:play-services-basement:8.3.0] C:\vinitha\Akira\sp\super-plan\superPlan\build\intermediates\exploded-aar\com.google.android.gms\play-services-basement\8.3.0\AndroidManifest.xml:21:9-23:69
MERGED from [com.google.android.gms:play-services-basement:8.3.0] C:\vinitha\Akira\sp\super-plan\superPlan\build\intermediates\exploded-aar\com.google.android.gms\play-services-basement\8.3.0\AndroidManifest.xml:21:9-23:69
MERGED from [com.google.android.gms:play-services-basement:8.3.0] C:\vinitha\Akira\sp\super-plan\superPlan\build\intermediates\exploded-aar\com.google.android.gms\play-services-basement\8.3.0\AndroidManifest.xml:21:9-23:69
MERGED from [com.google.android.gms:play-services-basement:8.3.0] C:\vinitha\Akira\sp\super-plan\superPlan\build\intermediates\exploded-aar\com.google.android.gms\play-services-basement\8.3.0\AndroidManifest.xml:21:9-23:69
MERGED from [com.google.android.gms:play-services-basement:8.3.0] C:\vinitha\Akira\sp\super-plan\superPlan\build\intermediates\exploded-aar\com.google.android.gms\play-services-basement\8.3.0\AndroidManifest.xml:21:9-23:69
MERGED from [com.google.android.gms:play-services-basement:8.3.0] C:\vinitha\Akira\sp\super-plan\superPlan\build\intermediates\exploded-aar\com.google.android.gms\play-services-basement\8.3.0\AndroidManifest.xml:21:9-23:69
MERGED from [com.google.android.gms:play-services-basement:8.3.0] C:\vinitha\Akira\sp\super-plan\superPlan\build\intermediates\exploded-aar\com.google.android.gms\play-services-basement\8.3.0\AndroidManifest.xml:21:9-23:69
MERGED from [com.google.android.gms:play-services-basement:8.3.0] C:\vinitha\Akira\sp\super-plan\superPlan\build\intermediates\exploded-aar\com.google.android.gms\play-services-basement\8.3.0\AndroidManifest.xml:21:9-23:69
MERGED from [com.google.android.gms:play-services-basement:8.3.0] C:\vinitha\Akira\sp\super-plan\superPlan\build\intermediates\exploded-aar\com.google.android.gms\play-services-basement\8.3.0\AndroidManifest.xml:21:9-23:69
MERGED from [com.google.android.gms:play-services-basement:8.3.0] C:\vinitha\Akira\sp\super-plan\superPlan\build\intermediates\exploded-aar\com.google.android.gms\play-services-basement\8.3.0\AndroidManifest.xml:21:9-23:69
MERGED from [com.google.android.gms:play-services-basement:8.3.0] C:\vinitha\Akira\sp\super-plan\superPlan\build\intermediates\exploded-aar\com.google.android.gms\play-services-basement\8.3.0\AndroidManifest.xml:21:9-23:69
MERGED from [com.google.android.gms:play-services-basement:8.3.0] C:\vinitha\Akira\sp\super-plan\superPlan\build\intermediates\exploded-aar\com.google.android.gms\play-services-basement\8.3.0\AndroidManifest.xml:21:9-23:69
MERGED from [com.google.android.gms:play-services-basement:8.3.0] C:\vinitha\Akira\sp\super-plan\superPlan\build\intermediates\exploded-aar\com.google.android.gms\play-services-basement\8.3.0\AndroidManifest.xml:21:9-23:69
MERGED from [com.google.android.gms:play-services-basement:8.3.0] C:\vinitha\Akira\sp\super-plan\superPlan\build\intermediates\exploded-aar\com.google.android.gms\play-services-basement\8.3.0\AndroidManifest.xml:21:9-23:69
MERGED from [com.google.android.gms:play-services-basement:8.3.0] C:\vinitha\Akira\sp\super-plan\superPlan\build\intermediates\exploded-aar\com.google.android.gms\play-services-basement\8.3.0\AndroidManifest.xml:21:9-23:69
MERGED from [com.google.android.gms:play-services-basement:8.3.0] C:\vinitha\Akira\sp\super-plan\superPlan\build\intermediates\exploded-aar\com.google.android.gms\play-services-basement\8.3.0\AndroidManifest.xml:21:9-23:69
MERGED from [com.google.android.gms:play-services-basement:8.3.0] C:\vinitha\Akira\sp\super-plan\superPlan\build\intermediates\exploded-aar\com.google.android.gms\play-services-basement\8.3.0\AndroidManifest.xml:21:9-23:69
MERGED from [com.google.android.gms:play-services-basement:8.3.0] C:\vinitha\Akira\sp\super-plan\superPlan\build\intermediates\exploded-aar\com.google.android.gms\play-services-basement\8.3.0\AndroidManifest.xml:21:9-23:69
MERGED from [com.google.android.gms:play-services-basement:8.3.0] C:\vinitha\Akira\sp\super-plan\superPlan\build\intermediates\exploded-aar\com.google.android.gms\play-services-basement\8.3.0\AndroidManifest.xml:21:9-23:69
MERGED from [com.google.android.gms:play-services-basement:8.3.0] C:\vinitha\Akira\sp\super-plan\superPlan\build\intermediates\exploded-aar\com.google.android.gms\play-services-basement\8.3.0\AndroidManifest.xml:21:9-23:69
MERGED from [com.google.android.gms:play-services-basement:8.3.0] C:\vinitha\Akira\sp\super-plan\superPlan\build\intermediates\exploded-aar\com.google.android.gms\play-services-basement\8.3.0\AndroidManifest.xml:21:9-23:69
MERGED from [com.google.android.gms:play-services-basement:8.3.0] C:\vinitha\Akira\sp\super-plan\superPlan\build\intermediates\exploded-aar\com.google.android.gms\play-services-basement\8.3.0\AndroidManifest.xml:21:9-23:69
MERGED from [com.google.android.gms:play-services-basement:8.3.0] C:\vinitha\Akira\sp\super-plan\superPlan\build\intermediates\exploded-aar\com.google.android.gms\play-services-basement\8.3.0\AndroidManifest.xml:21:9-23:69
MERGED from [com.google.android.gms:play-services-basement:8.3.0] C:\vinitha\Akira\sp\super-plan\superPlan\build\intermediates\exploded-aar\com.google.android.gms\play-services-basement\8.3.0\AndroidManifest.xml:21:9-23:69
MERGED from [com.google.android.gms:play-services-basement:8.3.0] C:\vinitha\Akira\sp\super-plan\superPlan\build\intermediates\exploded-aar\com.google.android.gms\play-services-basement\8.3.0\AndroidManifest.xml:21:9-23:69
MERGED from [com.google.android.gms:play-services-basement:8.3.0] C:\vinitha\Akira\sp\super-plan\superPlan\build\intermediates\exploded-aar\com.google.android.gms\play-services-basement\8.3.0\AndroidManifest.xml:21:9-23:69
MERGED from [com.google.android.gms:play-services-basement:8.3.0] C:\vinitha\Akira\sp\super-plan\superPlan\build\intermediates\exploded-aar\com.google.android.gms\play-services-basement\8.3.0\AndroidManifest.xml:21:9-23:69
MERGED from [com.google.android.gms:play-services-basement:8.3.0] C:\vinitha\Akira\sp\super-plan\superPlan\build\intermediates\exploded-aar\com.google.android.gms\play-services-basement\8.3.0\AndroidManifest.xml:21:9-23:69
MERGED from [com.google.android.gms:play-services-basement:8.3.0] C:\vinitha\Akira\sp\super-plan\superPlan\build\intermediates\exploded-aar\com.google.android.gms\play-services-basement\8.3.0\AndroidManifest.xml:21:9-23:69
MERGED from [com.google.android.gms:play-services-basement:8.3.0] C:\vinitha\Akira\sp\super-plan\superPlan\build\intermediates\exploded-aar\com.google.android.gms\play-services-basement\8.3.0\AndroidManifest.xml:21:9-23:69
	android:name
		ADDED from [com.google.android.gms:play-services-basement:8.3.0] C:\vinitha\Akira\sp\super-plan\superPlan\build\intermediates\exploded-aar\com.google.android.gms\play-services-basement\8.3.0\AndroidManifest.xml:22:13-58
	android:value
		ADDED from [com.google.android.gms:play-services-basement:8.3.0] C:\vinitha\Akira\sp\super-plan\superPlan\build\intermediates\exploded-aar\com.google.android.gms\play-services-basement\8.3.0\AndroidManifest.xml:23:13-66
activity#com.google.android.gms.ads.AdActivity
ADDED from [com.google.android.gms:play-services-ads:8.3.0] C:\vinitha\Akira\sp\super-plan\superPlan\build\intermediates\exploded-aar\com.google.android.gms\play-services-ads\8.3.0\AndroidManifest.xml:26:9-29:64
	android:configChanges
		ADDED from [com.google.android.gms:play-services-ads:8.3.0] C:\vinitha\Akira\sp\super-plan\superPlan\build\intermediates\exploded-aar\com.google.android.gms\play-services-ads\8.3.0\AndroidManifest.xml:28:13-122
	android:theme
		ADDED from [com.google.android.gms:play-services-ads:8.3.0] C:\vinitha\Akira\sp\super-plan\superPlan\build\intermediates\exploded-aar\com.google.android.gms\play-services-ads\8.3.0\AndroidManifest.xml:29:13-61
	android:name
		ADDED from [com.google.android.gms:play-services-ads:8.3.0] C:\vinitha\Akira\sp\super-plan\superPlan\build\intermediates\exploded-aar\com.google.android.gms\play-services-ads\8.3.0\AndroidManifest.xml:27:13-65
activity#com.google.android.gms.ads.purchase.InAppPurchaseActivity
ADDED from [com.google.android.gms:play-services-ads:8.3.0] C:\vinitha\Akira\sp\super-plan\superPlan\build\intermediates\exploded-aar\com.google.android.gms\play-services-ads\8.3.0\AndroidManifest.xml:30:9-31:52
	android:theme
		ADDED from [com.google.android.gms:play-services-ads:8.3.0] C:\vinitha\Akira\sp\super-plan\superPlan\build\intermediates\exploded-aar\com.google.android.gms\play-services-ads\8.3.0\AndroidManifest.xml:31:13-50
	android:name
		ADDED from [com.google.android.gms:play-services-ads:8.3.0] C:\vinitha\Akira\sp\super-plan\superPlan\build\intermediates\exploded-aar\com.google.android.gms\play-services-ads\8.3.0\AndroidManifest.xml:30:19-91
activity#com.google.android.gms.auth.api.signin.internal.SignInHubActivity
ADDED from [com.google.android.gms:play-services-auth:8.3.0] C:\vinitha\Akira\sp\super-plan\superPlan\build\intermediates\exploded-aar\com.google.android.gms\play-services-auth\8.3.0\AndroidManifest.xml:21:9-24:46
	android:theme
		ADDED from [com.google.android.gms:play-services-auth:8.3.0] C:\vinitha\Akira\sp\super-plan\superPlan\build\intermediates\exploded-aar\com.google.android.gms\play-services-auth\8.3.0\AndroidManifest.xml:22:19-78
	android:exported
		ADDED from [com.google.android.gms:play-services-auth:8.3.0] C:\vinitha\Akira\sp\super-plan\superPlan\build\intermediates\exploded-aar\com.google.android.gms\play-services-auth\8.3.0\AndroidManifest.xml:24:19-43
	android:excludeFromRecents
		ADDED from [com.google.android.gms:play-services-auth:8.3.0] C:\vinitha\Akira\sp\super-plan\superPlan\build\intermediates\exploded-aar\com.google.android.gms\play-services-auth\8.3.0\AndroidManifest.xml:23:19-52
	android:name
		ADDED from [com.google.android.gms:play-services-auth:8.3.0] C:\vinitha\Akira\sp\super-plan\superPlan\build\intermediates\exploded-aar\com.google.android.gms\play-services-auth\8.3.0\AndroidManifest.xml:21:19-72
uses-feature#0x00020000
ADDED from [com.google.android.gms:play-services-maps:8.3.0] C:\vinitha\Akira\sp\super-plan\superPlan\build\intermediates\exploded-aar\com.google.android.gms\play-services-maps\8.3.0\AndroidManifest.xml:22:5-24:33
MERGED from [com.google.android.gms:play-services-maps:8.3.0] C:\vinitha\Akira\sp\super-plan\superPlan\build\intermediates\exploded-aar\com.google.android.gms\play-services-maps\8.3.0\AndroidManifest.xml:22:5-24:33
MERGED from [com.google.android.gms:play-services-maps:8.3.0] C:\vinitha\Akira\sp\super-plan\superPlan\build\intermediates\exploded-aar\com.google.android.gms\play-services-maps\8.3.0\AndroidManifest.xml:22:5-24:33
MERGED from [com.google.android.gms:play-services-maps:8.3.0] C:\vinitha\Akira\sp\super-plan\superPlan\build\intermediates\exploded-aar\com.google.android.gms\play-services-maps\8.3.0\AndroidManifest.xml:22:5-24:33
	android:required
		ADDED from [com.google.android.gms:play-services-maps:8.3.0] C:\vinitha\Akira\sp\super-plan\superPlan\build\intermediates\exploded-aar\com.google.android.gms\play-services-maps\8.3.0\AndroidManifest.xml:24:8-31
	android:glEsVersion
		ADDED from [com.google.android.gms:play-services-maps:8.3.0] C:\vinitha\Akira\sp\super-plan\superPlan\build\intermediates\exploded-aar\com.google.android.gms\play-services-maps\8.3.0\AndroidManifest.xml:23:8-40
uses-permission#com.google.android.c2dm.permission.RECEIVE
ADDED from [com.google.android.gms:play-services-gcm:8.3.0] C:\vinitha\Akira\sp\super-plan\superPlan\build\intermediates\exploded-aar\com.google.android.gms\play-services-gcm\8.3.0\AndroidManifest.xml:21:5-82
	android:name
		ADDED from [com.google.android.gms:play-services-gcm:8.3.0] C:\vinitha\Akira\sp\super-plan\superPlan\build\intermediates\exploded-aar\com.google.android.gms\play-services-gcm\8.3.0\AndroidManifest.xml:21:22-79
uses-permission#android.permission.USE_CREDENTIALS
ADDED from [com.google.android.gms:play-services-wallet:8.3.0] C:\vinitha\Akira\sp\super-plan\superPlan\build\intermediates\exploded-aar\com.google.android.gms\play-services-wallet\8.3.0\AndroidManifest.xml:22:5-73
	android:name
		ADDED from [com.google.android.gms:play-services-wallet:8.3.0] C:\vinitha\Akira\sp\super-plan\superPlan\build\intermediates\exploded-aar\com.google.android.gms\play-services-wallet\8.3.0\AndroidManifest.xml:22:22-71
